*Heading
** Job name: assembly_soft Model name: assembly_soft
** Generated by: Abaqus/CAE 6.12-2
*Preprint, echo=NO, model=NO, history=NO, contact=NO
** ----------------------------------------------------------------
** 
** PART INSTANCE: Part-2-1
** 
*Node
      1,          10.,         -20.,           0.
      2,          20.,         -20.,           0.
      3,         -10.,         -20.,           0.
      4,         -20.,         -20.,           0.
      5,          10.,         -20.,   8.33333302
      6,          20.,         -20.,   8.33333302
      7,         -10.,         -20.,   8.33333302
      8,         -20.,         -20.,   8.33333302
      9,          10.,         -20.,    16.666666
     10,          20.,         -20.,    16.666666
     11,         -10.,         -20.,    16.666666
     12,         -20.,         -20.,    16.666666
     13,          10.,         -20.,   33.3333321
     14,          10.,         -20.,          25.
     15,          20.,         -20.,          25.
     16,          20.,         -20.,   33.3333321
     17,         -10.,         -20.,   33.3333321
     18,         -10.,         -20.,          25.
     19,         -20.,         -20.,   33.3333321
     20,         -20.,         -20.,          25.
     21,          20.,         -20.,          50.
     22,          10.,         -20.,          50.
     23,         -10.,         -20.,          50.
     24,         -20.,         -20.,          50.
     25,          10.,         -20.,   41.6666679
     26,          20.,         -20.,   41.6666679
     27,         -10.,         -20.,   41.6666679
     28,         -20.,         -20.,   41.6666679
     29,          10.,         -15.,           0.
     30,         -10.,         -15.,           0.
     31,          10.,         -15.,   8.33333302
     32,         -10.,         -15.,   8.33333302
     33,          10.,         -15.,    16.666666
     34,         -10.,         -15.,    16.666666
     35,          10.,         -15.,   33.3333321
     36,          10.,         -15.,          25.
     37,         -10.,         -15.,   33.3333321
     38,         -10.,         -15.,          25.
     39,          10.,         -15.,          50.
     40,         -10.,         -15.,          50.
     41,          10.,         -15.,   41.6666679
     42,         -10.,         -15.,   41.6666679
     43,          10.,         -10.,           0.
     44,         -10.,         -10.,           0.
     45,          10.,         -10.,   8.33333302
     46,         -10.,         -10.,   8.33333302
     47,          10.,         -10.,    16.666666
     48,         -10.,         -10.,    16.666666
     49,          10.,         -10.,   33.3333321
     50,          10.,         -10.,          25.
     51,         -10.,         -10.,   33.3333321
     52,         -10.,         -10.,          25.
     53,          10.,         -10.,          50.
     54,         -10.,         -10.,          50.
     55,          10.,         -10.,   41.6666679
     56,         -10.,         -10.,   41.6666679
     57,          10.,          -5.,           0.
     58,         -10.,          -5.,           0.
     59,          10.,          -5.,   8.33333302
     60,         -10.,          -5.,   8.33333302
     61,          10.,          -5.,    16.666666
     62,         -10.,          -5.,    16.666666
     63,          10.,          -5.,   33.3333321
     64,          10.,          -5.,          25.
     65,         -10.,          -5.,   33.3333321
     66,         -10.,          -5.,          25.
     67,          10.,          -5.,          50.
     68,         -10.,          -5.,          50.
     69,          10.,          -5.,   41.6666679
     70,         -10.,          -5.,   41.6666679
     71,           0.,           0.,           0.
     72,         -10.,           0.,           0.
     73,          10.,           0.,           0.
     74,           0.,           0.,   8.33333302
     75,         -10.,           0.,   8.33333302
     76,          -5.,           0.,           0.
     77,          10.,           0.,   8.33333302
     78,           5.,           0.,           0.
     79,          -5.,           0.,   8.33333302
     80,           5.,           0.,   8.33333302
     81,          60.,           0.,   8.33333302
     82,          40.,           0.,   8.33333302
     83,          20.,           0.,   8.33333302
     84,          60.,           0.,           0.
     85,          40.,           0.,           0.
     86,          20.,           0.,           0.
     87,           0.,           0.,    16.666666
     88,         -10.,           0.,    16.666666
     89,          10.,           0.,    16.666666
     90,          -5.,           0.,    16.666666
     91,           5.,           0.,    16.666666
     92,          60.,           0.,    16.666666
     93,          40.,           0.,    16.666666
     94,          20.,           0.,    16.666666
     95,           0.,           0.,          25.
     96,           0.,           0.,   33.3333321
     97,         -10.,           0.,   33.3333321
     98,         -10.,           0.,          25.
     99,          10.,           0.,   33.3333321
    100,          10.,           0.,          25.
    101,          -5.,           0.,          25.
    102,          -5.,           0.,   33.3333321
    103,           5.,           0.,   33.3333321
    104,           5.,           0.,          25.
    105,          60.,           0.,   33.3333321
    106,          40.,           0.,   33.3333321
    107,          20.,           0.,   33.3333321
    108,          60.,           0.,          25.
    109,          40.,           0.,          25.
    110,          20.,           0.,          25.
    111,           0.,           0.,          50.
    112,         -10.,           0.,          50.
    113,          10.,           0.,          50.
    114,           0.,           0.,   41.6666679
    115,          -5.,           0.,          50.
    116,         -10.,           0.,   41.6666679
    117,          10.,           0.,   41.6666679
    118,           5.,           0.,          50.
    119,          -5.,           0.,   41.6666679
    120,           5.,           0.,   41.6666679
    121,          60.,           0.,          50.
    122,          40.,           0.,          50.
    123,          20.,           0.,          50.
    124,          60.,           0.,   41.6666679
    125,          40.,           0.,   41.6666679
    126,          20.,           0.,   41.6666679
    127,         140.,           0.,   8.33333302
    128,         120.,           0.,   8.33333302
    129,         100.,           0.,   8.33333302
    130,          80.,           0.,   8.33333302
    131,         140.,           0.,           0.
    132,         120.,           0.,           0.
    133,         100.,           0.,           0.
    134,          80.,           0.,           0.
    135,         140.,           0.,    16.666666
    136,         120.,           0.,    16.666666
    137,         100.,           0.,    16.666666
    138,          80.,           0.,    16.666666
    139,         140.,           0.,   33.3333321
    140,         120.,           0.,   33.3333321
    141,         100.,           0.,   33.3333321
    142,          80.,           0.,   33.3333321
    143,         140.,           0.,          25.
    144,         120.,           0.,          25.
    145,         100.,           0.,          25.
    146,          80.,           0.,          25.
    147,         140.,           0.,          50.
    148,         120.,           0.,          50.
    149,         100.,           0.,          50.
    150,          80.,           0.,          50.
    151,         140.,           0.,   41.6666679
    152,         120.,           0.,   41.6666679
    153,         100.,           0.,   41.6666679
    154,          80.,           0.,   41.6666679
    155,         240.,           0.,   8.33333302
    156,         220.,           0.,   8.33333302
    157,         200.,           0.,   8.33333302
    158,         180.,           0.,   8.33333302
    159,         160.,           0.,   8.33333302
    160,         240.,           0.,           0.
    161,         220.,           0.,           0.
    162,         200.,           0.,           0.
    163,         180.,           0.,           0.
    164,         160.,           0.,           0.
    165,         240.,           0.,    16.666666
    166,         220.,           0.,    16.666666
    167,         200.,           0.,    16.666666
    168,         180.,           0.,    16.666666
    169,         160.,           0.,    16.666666
    170,         240.,           0.,   33.3333321
    171,         220.,           0.,   33.3333321
    172,         200.,           0.,   33.3333321
    173,         180.,           0.,   33.3333321
    174,         160.,           0.,   33.3333321
    175,         240.,           0.,          25.
    176,         220.,           0.,          25.
    177,         200.,           0.,          25.
    178,         180.,           0.,          25.
    179,         160.,           0.,          25.
    180,         240.,           0.,          50.
    181,         220.,           0.,          50.
    182,         200.,           0.,          50.
    183,         180.,           0.,          50.
    184,         160.,           0.,          50.
    185,         240.,           0.,   41.6666679
    186,         220.,           0.,   41.6666679
    187,         200.,           0.,   41.6666679
    188,         180.,           0.,   41.6666679
    189,         160.,           0.,   41.6666679
    190,         320.,           0.,   8.33333302
    191,         300.,           0.,   8.33333302
    192,         280.,           0.,   8.33333302
    193,         260.,           0.,   8.33333302
    194,         320.,           0.,           0.
    195,         300.,           0.,           0.
    196,         280.,           0.,           0.
    197,         260.,           0.,           0.
    198,         320.,           0.,    16.666666
    199,         300.,           0.,    16.666666
    200,         280.,           0.,    16.666666
    201,         260.,           0.,    16.666666
    202,         320.,           0.,   33.3333321
    203,         300.,           0.,   33.3333321
    204,         280.,           0.,   33.3333321
    205,         260.,           0.,   33.3333321
    206,         320.,           0.,          25.
    207,         300.,           0.,          25.
    208,         280.,           0.,          25.
    209,         260.,           0.,          25.
    210,         320.,           0.,          50.
    211,         300.,           0.,          50.
    212,         280.,           0.,          50.
    213,         260.,           0.,          50.
    214,         320.,           0.,   41.6666679
    215,         300.,           0.,   41.6666679
    216,         280.,           0.,   41.6666679
    217,         260.,           0.,   41.6666679
    218,         420.,           0.,   8.33333302
    219,         400.,           0.,   8.33333302
    220,         380.,           0.,   8.33333302
    221,         360.,           0.,   8.33333302
    222,         340.,           0.,   8.33333302
    223,         420.,           0.,           0.
    224,         400.,           0.,           0.
    225,         380.,           0.,           0.
    226,         360.,           0.,           0.
    227,         340.,           0.,           0.
    228,         420.,           0.,    16.666666
    229,         400.,           0.,    16.666666
    230,         380.,           0.,    16.666666
    231,         360.,           0.,    16.666666
    232,         340.,           0.,    16.666666
    233,         420.,           0.,   33.3333321
    234,         400.,           0.,   33.3333321
    235,         380.,           0.,   33.3333321
    236,         360.,           0.,   33.3333321
    237,         340.,           0.,   33.3333321
    238,         420.,           0.,          25.
    239,         400.,           0.,          25.
    240,         380.,           0.,          25.
    241,         360.,           0.,          25.
    242,         340.,           0.,          25.
    243,         420.,           0.,          50.
    244,         400.,           0.,          50.
    245,         380.,           0.,          50.
    246,         360.,           0.,          50.
    247,         340.,           0.,          50.
    248,         420.,           0.,   41.6666679
    249,         400.,           0.,   41.6666679
    250,         380.,           0.,   41.6666679
    251,         360.,           0.,   41.6666679
    252,         340.,           0.,   41.6666679
    253,         510.,         -20.,           0.
    254,         520.,         -20.,           0.
    255,         490.,         -20.,           0.
    256,         480.,         -20.,           0.
    257,         510.,         -20.,   8.33333302
    258,         520.,         -20.,   8.33333302
    259,         490.,         -20.,   8.33333302
    260,         480.,         -20.,   8.33333302
    261,         510.,         -20.,    16.666666
    262,         520.,         -20.,    16.666666
    263,         490.,         -20.,    16.666666
    264,         480.,         -20.,    16.666666
    265,         510.,         -20.,   33.3333321
    266,         510.,         -20.,          25.
    267,         520.,         -20.,          25.
    268,         520.,         -20.,   33.3333321
    269,         490.,         -20.,   33.3333321
    270,         490.,         -20.,          25.
    271,         480.,         -20.,   33.3333321
    272,         480.,         -20.,          25.
    273,         520.,         -20.,          50.
    274,         510.,         -20.,          50.
    275,         490.,         -20.,          50.
    276,         480.,         -20.,          50.
    277,         510.,         -20.,   41.6666679
    278,         520.,         -20.,   41.6666679
    279,         490.,         -20.,   41.6666679
    280,         480.,         -20.,   41.6666679
    281,         510.,         -15.,           0.
    282,         490.,         -15.,           0.
    283,         510.,         -15.,   8.33333302
    284,         490.,         -15.,   8.33333302
    285,         510.,         -15.,    16.666666
    286,         490.,         -15.,    16.666666
    287,         510.,         -15.,   33.3333321
    288,         510.,         -15.,          25.
    289,         490.,         -15.,   33.3333321
    290,         490.,         -15.,          25.
    291,         510.,         -15.,          50.
    292,         490.,         -15.,          50.
    293,         510.,         -15.,   41.6666679
    294,         490.,         -15.,   41.6666679
    295,         510.,         -10.,           0.
    296,         490.,         -10.,           0.
    297,         510.,         -10.,   8.33333302
    298,         490.,         -10.,   8.33333302
    299,         510.,         -10.,    16.666666
    300,         490.,         -10.,    16.666666
    301,         510.,         -10.,   33.3333321
    302,         510.,         -10.,          25.
    303,         490.,         -10.,   33.3333321
    304,         490.,         -10.,          25.
    305,         510.,         -10.,          50.
    306,         490.,         -10.,          50.
    307,         510.,         -10.,   41.6666679
    308,         490.,         -10.,   41.6666679
    309,         510.,          -5.,           0.
    310,         490.,          -5.,           0.
    311,         510.,          -5.,   8.33333302
    312,         490.,          -5.,   8.33333302
    313,         510.,          -5.,    16.666666
    314,         490.,          -5.,    16.666666
    315,         510.,          -5.,   33.3333321
    316,         510.,          -5.,          25.
    317,         490.,          -5.,   33.3333321
    318,         490.,          -5.,          25.
    319,         510.,          -5.,          50.
    320,         490.,          -5.,          50.
    321,         510.,          -5.,   41.6666679
    322,         490.,          -5.,   41.6666679
    323,         500.,           0.,   8.33333302
    324,         480.,           0.,   8.33333302
    325,         460.,           0.,   8.33333302
    326,         440.,           0.,   8.33333302
    327,         500.,           0.,           0.
    328,         480.,           0.,           0.
    329,         460.,           0.,           0.
    330,         440.,           0.,           0.
    331,         490.,           0.,           0.
    332,         510.,           0.,           0.
    333,         490.,           0.,   8.33333302
    334,         495.,           0.,           0.
    335,         510.,           0.,   8.33333302
    336,         505.,           0.,           0.
    337,         495.,           0.,   8.33333302
    338,         505.,           0.,   8.33333302
    339,         500.,           0.,    16.666666
    340,         480.,           0.,    16.666666
    341,         460.,           0.,    16.666666
    342,         440.,           0.,    16.666666
    343,         490.,           0.,    16.666666
    344,         510.,           0.,    16.666666
    345,         495.,           0.,    16.666666
    346,         505.,           0.,    16.666666
    347,         500.,           0.,   33.3333321
    348,         480.,           0.,   33.3333321
    349,         460.,           0.,   33.3333321
    350,         440.,           0.,   33.3333321
    351,         500.,           0.,          25.
    352,         480.,           0.,          25.
    353,         460.,           0.,          25.
    354,         440.,           0.,          25.
    355,         490.,           0.,   33.3333321
    356,         490.,           0.,          25.
    357,         510.,           0.,   33.3333321
    358,         510.,           0.,          25.
    359,         495.,           0.,          25.
    360,         495.,           0.,   33.3333321
    361,         505.,           0.,   33.3333321
    362,         505.,           0.,          25.
    363,         500.,           0.,          50.
    364,         480.,           0.,          50.
    365,         460.,           0.,          50.
    366,         440.,           0.,          50.
    367,         500.,           0.,   41.6666679
    368,         480.,           0.,   41.6666679
    369,         460.,           0.,   41.6666679
    370,         440.,           0.,   41.6666679
    371,         490.,           0.,          50.
    372,         510.,           0.,          50.
    373,         495.,           0.,          50.
    374,         490.,           0.,   41.6666679
    375,         510.,           0.,   41.6666679
    376,         505.,           0.,          50.
    377,         495.,           0.,   41.6666679
    378,         505.,           0.,   41.6666679
*Element, type=S4R
 1,  71,  74,  79,  76
 2,  74,  87,  90,  79
 3,  87,  95, 101,  90
 4,  95,  96, 102, 101
 5,  96, 114, 119, 102
 6, 114, 111, 115, 119
 7,  76,  79,  75,  72
 8,  79,  90,  88,  75
 9,  90, 101,  98,  88
10, 101, 102,  97,  98
11, 102, 119, 116,  97
12, 119, 115, 112, 116
13, 21, 22, 25, 26
14, 26, 25, 13, 16
15, 16, 13, 14, 15
16, 15, 14,  9, 10
17, 10,  9,  5,  6
18,  6,  5,  1,  2
19,  22,  39,  41,  25
20,  39,  53,  55,  41
21,  53,  67,  69,  55
22,  67, 113, 117,  69
23,  25,  41,  35,  13
24,  41,  55,  49,  35
25,  55,  69,  63,  49
26,  69, 117,  99,  63
27,  13,  35,  36,  14
28,  35,  49,  50,  36
29,  49,  63,  64,  50
30,  63,  99, 100,  64
31,  14,  36,  33,   9
32,  36,  50,  47,  33
33,  50,  64,  61,  47
34,  64, 100,  89,  61
35,   9,  33,  31,   5
36,  33,  47,  45,  31
37,  47,  61,  59,  45
38,  61,  89,  77,  59
39,   5,  31,  29,   1
40,  31,  45,  43,  29
41,  45,  59,  57,  43
42,  59,  77,  73,  57
43, 111, 114, 120, 118
44, 114,  96, 103, 120
45,  96,  95, 104, 103
46,  95,  87,  91, 104
47,  87,  74,  80,  91
48,  74,  71,  78,  80
49, 118, 120, 117, 113
50, 120, 103,  99, 117
51, 103, 104, 100,  99
52, 104,  91,  89, 100
53,  91,  80,  77,  89
54,  80,  78,  73,  77
55, 112,  68,  70, 116
56,  68,  54,  56,  70
57,  54,  40,  42,  56
58,  40,  23,  27,  42
59, 116,  70,  65,  97
60,  70,  56,  51,  65
61,  56,  42,  37,  51
62,  42,  27,  17,  37
63,  97,  65,  66,  98
64,  65,  51,  52,  66
65,  51,  37,  38,  52
66,  37,  17,  18,  38
67,  98,  66,  62,  88
68,  66,  52,  48,  62
69,  52,  38,  34,  48
70,  38,  18,  11,  34
71,  88,  62,  60,  75
72,  62,  48,  46,  60
73,  48,  34,  32,  46
74,  34,  11,   7,  32
75,  75,  60,  58,  72
76,  60,  46,  44,  58
77,  46,  32,  30,  44
78,  32,   7,   3,  30
79, 23, 24, 28, 27
80, 27, 28, 19, 17
81, 17, 19, 20, 18
82, 18, 20, 12, 11
83, 11, 12,  8,  7
84,  7,  8,  4,  3
 85, 363, 364, 368, 367
 86, 364, 365, 369, 368
 87, 365, 366, 370, 369
 88, 366, 243, 248, 370
 89, 243, 244, 249, 248
 90, 244, 245, 250, 249
 91, 245, 246, 251, 250
 92, 246, 247, 252, 251
 93, 247, 210, 214, 252
 94, 210, 211, 215, 214
 95, 211, 212, 216, 215
 96, 212, 213, 217, 216
 97, 213, 180, 185, 217
 98, 180, 181, 186, 185
 99, 181, 182, 187, 186
100, 182, 183, 188, 187
101, 183, 184, 189, 188
102, 184, 147, 151, 189
103, 147, 148, 152, 151
104, 148, 149, 153, 152
105, 149, 150, 154, 153
106, 150, 121, 124, 154
107, 121, 122, 125, 124
108, 122, 123, 126, 125
109, 123, 111, 114, 126
110, 367, 368, 348, 347
111, 368, 369, 349, 348
112, 369, 370, 350, 349
113, 370, 248, 233, 350
114, 248, 249, 234, 233
115, 249, 250, 235, 234
116, 250, 251, 236, 235
117, 251, 252, 237, 236
118, 252, 214, 202, 237
119, 214, 215, 203, 202
120, 215, 216, 204, 203
121, 216, 217, 205, 204
122, 217, 185, 170, 205
123, 185, 186, 171, 170
124, 186, 187, 172, 171
125, 187, 188, 173, 172
126, 188, 189, 174, 173
127, 189, 151, 139, 174
128, 151, 152, 140, 139
129, 152, 153, 141, 140
130, 153, 154, 142, 141
131, 154, 124, 105, 142
132, 124, 125, 106, 105
133, 125, 126, 107, 106
134, 126, 114,  96, 107
135, 347, 348, 352, 351
136, 348, 349, 353, 352
137, 349, 350, 354, 353
138, 350, 233, 238, 354
139, 233, 234, 239, 238
140, 234, 235, 240, 239
141, 235, 236, 241, 240
142, 236, 237, 242, 241
143, 237, 202, 206, 242
144, 202, 203, 207, 206
145, 203, 204, 208, 207
146, 204, 205, 209, 208
147, 205, 170, 175, 209
148, 170, 171, 176, 175
149, 171, 172, 177, 176
150, 172, 173, 178, 177
151, 173, 174, 179, 178
152, 174, 139, 143, 179
153, 139, 140, 144, 143
154, 140, 141, 145, 144
155, 141, 142, 146, 145
156, 142, 105, 108, 146
157, 105, 106, 109, 108
158, 106, 107, 110, 109
159, 107,  96,  95, 110
160, 351, 352, 340, 339
161, 352, 353, 341, 340
162, 353, 354, 342, 341
163, 354, 238, 228, 342
164, 238, 239, 229, 228
165, 239, 240, 230, 229
166, 240, 241, 231, 230
167, 241, 242, 232, 231
168, 242, 206, 198, 232
169, 206, 207, 199, 198
170, 207, 208, 200, 199
171, 208, 209, 201, 200
172, 209, 175, 165, 201
173, 175, 176, 166, 165
174, 176, 177, 167, 166
175, 177, 178, 168, 167
176, 178, 179, 169, 168
177, 179, 143, 135, 169
178, 143, 144, 136, 135
179, 144, 145, 137, 136
180, 145, 146, 138, 137
181, 146, 108,  92, 138
182, 108, 109,  93,  92
183, 109, 110,  94,  93
184, 110,  95,  87,  94
185, 339, 340, 324, 323
186, 340, 341, 325, 324
187, 341, 342, 326, 325
188, 342, 228, 218, 326
189, 228, 229, 219, 218
190, 229, 230, 220, 219
191, 230, 231, 221, 220
192, 231, 232, 222, 221
193, 232, 198, 190, 222
194, 198, 199, 191, 190
195, 199, 200, 192, 191
196, 200, 201, 193, 192
197, 201, 165, 155, 193
198, 165, 166, 156, 155
199, 166, 167, 157, 156
200, 167, 168, 158, 157
201, 168, 169, 159, 158
202, 169, 135, 127, 159
203, 135, 136, 128, 127
204, 136, 137, 129, 128
205, 137, 138, 130, 129
206, 138,  92,  81, 130
207,  92,  93,  82,  81
208,  93,  94,  83,  82
209,  94,  87,  74,  83
210, 323, 324, 328, 327
211, 324, 325, 329, 328
212, 325, 326, 330, 329
213, 326, 218, 223, 330
214, 218, 219, 224, 223
215, 219, 220, 225, 224
216, 220, 221, 226, 225
217, 221, 222, 227, 226
218, 222, 190, 194, 227
219, 190, 191, 195, 194
220, 191, 192, 196, 195
221, 192, 193, 197, 196
222, 193, 155, 160, 197
223, 155, 156, 161, 160
224, 156, 157, 162, 161
225, 157, 158, 163, 162
226, 158, 159, 164, 163
227, 159, 127, 131, 164
228, 127, 128, 132, 131
229, 128, 129, 133, 132
230, 129, 130, 134, 133
231, 130,  81,  84, 134
232,  81,  82,  85,  84
233,  82,  83,  86,  85
234,  83,  74,  71,  86
235, 327, 323, 337, 334
236, 323, 339, 345, 337
237, 339, 351, 359, 345
238, 351, 347, 360, 359
239, 347, 367, 377, 360
240, 367, 363, 373, 377
241, 334, 337, 333, 331
242, 337, 345, 343, 333
243, 345, 359, 356, 343
244, 359, 360, 355, 356
245, 360, 377, 374, 355
246, 377, 373, 371, 374
247, 273, 274, 277, 278
248, 278, 277, 265, 268
249, 268, 265, 266, 267
250, 267, 266, 261, 262
251, 262, 261, 257, 258
252, 258, 257, 253, 254
253, 274, 291, 293, 277
254, 291, 305, 307, 293
255, 305, 319, 321, 307
256, 319, 372, 375, 321
257, 277, 293, 287, 265
258, 293, 307, 301, 287
259, 307, 321, 315, 301
260, 321, 375, 357, 315
261, 265, 287, 288, 266
262, 287, 301, 302, 288
263, 301, 315, 316, 302
264, 315, 357, 358, 316
265, 266, 288, 285, 261
266, 288, 302, 299, 285
267, 302, 316, 313, 299
268, 316, 358, 344, 313
269, 261, 285, 283, 257
270, 285, 299, 297, 283
271, 299, 313, 311, 297
272, 313, 344, 335, 311
273, 257, 283, 281, 253
274, 283, 297, 295, 281
275, 297, 311, 309, 295
276, 311, 335, 332, 309
277, 363, 367, 378, 376
278, 367, 347, 361, 378
279, 347, 351, 362, 361
280, 351, 339, 346, 362
281, 339, 323, 338, 346
282, 323, 327, 336, 338
283, 376, 378, 375, 372
284, 378, 361, 357, 375
285, 361, 362, 358, 357
286, 362, 346, 344, 358
287, 346, 338, 335, 344
288, 338, 336, 332, 335
289, 371, 320, 322, 374
290, 320, 306, 308, 322
291, 306, 292, 294, 308
292, 292, 275, 279, 294
293, 374, 322, 317, 355
294, 322, 308, 303, 317
295, 308, 294, 289, 303
296, 294, 279, 269, 289
297, 355, 317, 318, 356
298, 317, 303, 304, 318
299, 303, 289, 290, 304
300, 289, 269, 270, 290
301, 356, 318, 314, 343
302, 318, 304, 300, 314
303, 304, 290, 286, 300
304, 290, 270, 263, 286
305, 343, 314, 312, 333
306, 314, 300, 298, 312
307, 300, 286, 284, 298
308, 286, 263, 259, 284
309, 333, 312, 310, 331
310, 312, 298, 296, 310
311, 298, 284, 282, 296
312, 284, 259, 255, 282
313, 275, 276, 280, 279
314, 279, 280, 271, 269
315, 269, 271, 272, 270
316, 270, 272, 264, 263
317, 263, 264, 260, 259
318, 259, 260, 256, 255
*Nset, nset=Part-2-1_supportSet
   1,   2,   3,   4,   5,   6,   7,   8,   9,  10,  11,  12,  13,  14,  15,  16
  17,  18,  19,  20,  21,  22,  23,  24,  25,  26,  27,  28,  29,  30,  31,  32
  33,  34,  35,  36,  37,  38,  39,  40,  41,  42,  43,  44,  45,  46,  47,  48
  49,  50,  51,  52,  53,  54,  55,  56,  57,  58,  59,  60,  61,  62,  63,  64
  65,  66,  67,  68,  69,  70,  71,  72,  73,  74,  75,  76,  77,  78,  79,  80
  87,  88,  89,  90,  91,  95,  96,  97,  98,  99, 100, 101, 102, 103, 104, 111
 112, 113, 114, 115, 116, 117, 118, 119, 120, 253, 254, 255, 256, 257, 258, 259
 260, 261, 262, 263, 264, 265, 266, 267, 268, 269, 270, 271, 272, 273, 274, 275
 276, 277, 278, 279, 280, 281, 282, 283, 284, 285, 286, 287, 288, 289, 290, 291
 292, 293, 294, 295, 296, 297, 298, 299, 300, 301, 302, 303, 304, 305, 306, 307
 308, 309, 310, 311, 312, 313, 314, 315, 316, 317, 318, 319, 320, 321, 322, 323
 327, 331, 332, 333, 334, 335, 336, 337, 338, 339, 343, 344, 345, 346, 347, 351
 355, 356, 357, 358, 359, 360, 361, 362, 363, 367, 371, 372, 373, 374, 375, 376
 377, 378
*Elset, elset=Part-2-1_supportSet
   1,   2,   3,   4,   5,   6,   7,   8,   9,  10,  11,  12,  13,  14,  15,  16
  17,  18,  19,  20,  21,  22,  23,  24,  25,  26,  27,  28,  29,  30,  31,  32
  33,  34,  35,  36,  37,  38,  39,  40,  41,  42,  43,  44,  45,  46,  47,  48
  49,  50,  51,  52,  53,  54,  55,  56,  57,  58,  59,  60,  61,  62,  63,  64
  65,  66,  67,  68,  69,  70,  71,  72,  73,  74,  75,  76,  77,  78,  79,  80
  81,  82,  83,  84, 235, 236, 237, 238, 239, 240, 241, 242, 243, 244, 245, 246
 247, 248, 249, 250, 251, 252, 253, 254, 255, 256, 257, 258, 259, 260, 261, 262
 263, 264, 265, 266, 267, 268, 269, 270, 271, 272, 273, 274, 275, 276, 277, 278
 279, 280, 281, 282, 283, 284, 285, 286, 287, 288, 289, 290, 291, 292, 293, 294
 295, 296, 297, 298, 299, 300, 301, 302, 303, 304, 305, 306, 307, 308, 309, 310
 311, 312, 313, 314, 315, 316, 317, 318
*Nset, nset=Part-2-1_retainedDofs
  71,  74,  87,  95,  96, 111, 114, 323, 327, 339, 347, 351, 363, 367
*Elset, elset=Part-2-1_retainedDofs
   1,   2,   3,   4,   5,   6,  43,  44,  45,  46,  47,  48,  85, 109, 110, 134
 135, 159, 160, 184, 185, 209, 210, 234, 235, 236, 237, 238, 239, 240, 277, 278
 279, 280, 281, 282
*Nset, nset=Part-2-1_bcSet
   1,   2,   3,   4,   5,   6,   7,   8,   9,  10,  11,  12,  13,  14,  15,  16
  17,  18,  19,  20,  21,  22,  23,  24,  25,  26,  27,  28, 253, 254, 255, 256
 257, 258, 259, 260, 261, 262, 263, 264, 265, 266, 267, 268, 269, 270, 271, 272
 273, 274, 275, 276, 277, 278, 279, 280
*Elset, elset=Part-2-1_bcSet
  13,  14,  15,  16,  17,  18,  79,  80,  81,  82,  83,  84, 247, 248, 249, 250
 251, 252, 313, 314, 315, 316, 317, 318
*Nset, nset=Part-2-1_panelSet
  71,  74,  81,  82,  83,  84,  85,  86,  87,  92,  93,  94,  95,  96, 105, 106
 107, 108, 109, 110, 111, 114, 121, 122, 123, 124, 125, 126, 127, 128, 129, 130
 131, 132, 133, 134, 135, 136, 137, 138, 139, 140, 141, 142, 143, 144, 145, 146
 147, 148, 149, 150, 151, 152, 153, 154, 155, 156, 157, 158, 159, 160, 161, 162
 163, 164, 165, 166, 167, 168, 169, 170, 171, 172, 173, 174, 175, 176, 177, 178
 179, 180, 181, 182, 183, 184, 185, 186, 187, 188, 189, 190, 191, 192, 193, 194
 195, 196, 197, 198, 199, 200, 201, 202, 203, 204, 205, 206, 207, 208, 209, 210
 211, 212, 213, 214, 215, 216, 217, 218, 219, 220, 221, 222, 223, 224, 225, 226
 227, 228, 229, 230, 231, 232, 233, 234, 235, 236, 237, 238, 239, 240, 241, 242
 243, 244, 245, 246, 247, 248, 249, 250, 251, 252, 323, 324, 325, 326, 327, 328
 329, 330, 339, 340, 341, 342, 347, 348, 349, 350, 351, 352, 353, 354, 363, 364
 365, 366, 367, 368, 369, 370
*Elset, elset=Part-2-1_panelSet, generate
  85,  234,    1
** Section: shell_support
*Shell Section, elset=Part-2-1_supportSet, material=Aluminum
1.5, 5
** Section: shell_panel
*Shell Section, elset=Part-2-1_panelSet, material=Aluminum
1.5, 5
*System
*Nset, nset=bcSet
   1,   2,   3,   4,   5,   6,   7,   8,   9,  10,  11,  12,  13,  14,  15,  16
  17,  18,  19,  20,  21,  22,  23,  24,  25,  26,  27,  28, 253, 254, 255, 256
 257, 258, 259, 260, 261, 262, 263, 264, 265, 266, 267, 268, 269, 270, 271, 272
 273, 274, 275, 276, 277, 278, 279, 280
*Nset, nset=panel
  71,  74,  81,  82,  83,  84,  85,  86,  87,  92,  93,  94,  95,  96, 105, 106
 107, 108, 109, 110, 111, 114, 121, 122, 123, 124, 125, 126, 127, 128, 129, 130
 131, 132, 133, 134, 135, 136, 137, 138, 139, 140, 141, 142, 143, 144, 145, 146
 147, 148, 149, 150, 151, 152, 153, 154, 155, 156, 157, 158, 159, 160, 161, 162
 163, 164, 165, 166, 167, 168, 169, 170, 171, 172, 173, 174, 175, 176, 177, 178
 179, 180, 181, 182, 183, 184, 185, 186, 187, 188, 189, 190, 191, 192, 193, 194
 195, 196, 197, 198, 199, 200, 201, 202, 203, 204, 205, 206, 207, 208, 209, 210
 211, 212, 213, 214, 215, 216, 217, 218, 219, 220, 221, 222, 223, 224, 225, 226
 227, 228, 229, 230, 231, 232, 233, 234, 235, 236, 237, 238, 239, 240, 241, 242
 243, 244, 245, 246, 247, 248, 249, 250, 251, 252, 323, 324, 325, 326, 327, 328
 329, 330, 339, 340, 341, 342, 347, 348, 349, 350, 351, 352, 353, 354, 363, 364
 365, 366, 367, 368, 369, 370
** 
** MATERIALS
** 
*Material, name=Aluminum
*Density
 2.7e-09,
*Elastic
71000., 0.33
** 
** BOUNDARY CONDITIONS
** 
** Name: BC-1 Type: Symmetry/Antisymmetry/Encastre
*Boundary
bcSet, ENCASTRE
** ----------------------------------------------------------------
** 
** STEP: modal
** 
*Step, name=modal, perturbation
*Frequency, eigensolver=Lanczos, acoustic coupling=on, normalization=displacement
50, , , , , 
** 
** OUTPUT REQUESTS
** 
*Restart, write, frequency=0
** 
** FIELD OUTPUT: F-Output-1
** 
*Output, field, variable=PRESELECT
*End Step
