**   *******************************************************************
**    ABAQUS/FROMNASTRAN Version 6.6-1
** 
**    reading bulk data from: simplysupported.bdf
**     creating ABAQUS input: simplysupported.inp
**    writing diagnostics to: simplysupported.log
** 
**     environment variables: fromnastran_wtmass_fixup <not present>
**                          : fromnastran_distribution <not present>
**                          : fromnastran_pbar_zero_reset <not present>
**                          : fromnastran_loadcases <not present>
**                          : fromnastran_surface_based_coupling <not present>
**                          : fromnastran_cquad4 <not present>
**                          : fromnastran_chexa <not present>
**                          : fromnastran_ctetra <not present>
**                          : fromnastran_cbar <not present>
** 
**    command line arguments: wtmass_fixup <not present>
**                          : distribution <not present>
**                          : pbar_zero_reset <not present, using default=1e-20
**                          : loadcases <not present>
**                          : surface_based_coupling <not present>
**                          : cquad4 <not present>
**                          : chexa <not present>
**                          : ctetra <not present>
**                          : cbar <not present>
** 
**    PARAM,WTMASS will NOT be used to adjust mass and density
**    *DISTRIBUTION will be used to define shell offsets and orientations
**    Zero PBAR/PBEAM cross sectional parameters will be reset to 1e-20
**    SUBCASEs for SOL 101 and 108 will be General STEPs
**    Rigid links will be modeled using non-surface-based constraints
** 
**    --------------------------------
**    NASTRAN Bulk Data processed:
**     keyword   number
**    --------   ------
**       CBEAM      784
**      CQUAD4    14832
**       EIGRL        1
**     ENDDATA        1
**        GRID    16026
**        MAT1        1
**       PARAM        2
**      PSHELL        3
**        SPC1       10
**      SPCADD        1
**      PBEAML        1
** 
**    ---------------------------------------------------
**    ---- *HEADING--------------------------------------
**    ---------------------------------------------------
** 
*Heading
** Job name: S_Stiffener_SS Model name: S_stiffener
** Generated by: Abaqus/CAE 6.12-2
*Preprint, echo=NO, model=NO, history=NO, contact=NO
** ----------------------------------------------------------------
** 
** PART INSTANCE: PART-1-1
** 
*System
    9.037501,0.800000000000001,   33.080002,    8.037501,0.800000000000001,   33.080002
    9.037501,0.800000000000001,   32.080002
*Node
    123,         7.75,   30.5200005,           0.
    124,         7.75,   29.9025002,           0.
    125,         7.75,   29.2849998,           0.
    126,         7.75,   28.6674995,           0.
    127,         7.75,   28.0499992,           0.
    128,         7.75,   27.4325008,           0.
    129,         7.75,   26.8150005,           0.
    130,         7.75,   26.1975002,           0.
    131,         7.75,   25.5799999,           0.
    139,         7.75,   23.0200005,           0.
    140,         7.75,   22.4025002,           0.
    141,         7.75,   21.7849998,           0.
    142,         7.75,   21.1674995,           0.
    143,         7.75,   20.5499992,           0.
    144,         7.75,   19.9325008,           0.
    145,         7.75,   19.3150005,           0.
    146,         7.75,   18.6975002,           0.
    147,         7.75,   18.0799999,           0.
    155,         7.75,   15.5200005,           0.
    156,         7.75,   14.9025002,           0.
    157,         7.75,   14.2849998,           0.
    158,         7.75,   13.6674995,           0.
    159,         7.75,   13.0500002,           0.
    160,         7.75,   12.4324999,           0.
    161,         7.75,   11.8149996,           0.
    162,         7.75,   11.1975002,           0.
    163,         7.75,   10.5799999,           0.
  13309,   9.03750038,   8.02000046,   1.14999998
  13310,   9.03750038,   8.02000046,  0.800000012
  13311,        8.625,   8.02000046,  0.800000012
  13312,   8.21249962,   8.02000046,  0.800000012
  13313,   8.21249962,   8.02000046,   1.02499998
  13314,   8.21249962,   8.02000046,   1.52499998
  13315,   8.21249962,   8.02000046,    2.0250001
  13316,   8.21249962,   8.02000046,   2.51250005
  13317,   8.21249962,   8.02000046,           3.
  13318,   7.38749981,   8.02000046,           3.
  13319,   7.38749981,   8.02000046,    2.6500001
  13320,   9.03750038,   8.28190041,   1.14999998
  13321,   9.03750038,   8.28190041,  0.800000012
  13322,        8.625,   8.28190041,  0.800000012
  13323,   8.21249962,   8.28190041,  0.800000012
  13324,   8.21249962,   8.28190041,   1.02499998
  13325,   8.21249962,   8.28190041,   1.52499998
  13326,   8.21249962,   8.28190041,    2.0250001
  13327,   8.21249962,   8.28190041,   2.51250005
  13328,   8.21249962,   8.28190041,           3.
  13329,   7.38749981,   8.28190041,           3.
  13330,   7.38749981,   8.28190041,    2.6500001
  13331,   9.03750038,   8.60564995,   1.14999998
  13332,   9.03750038,   8.60564995,  0.800000012
  13333,        8.625,   8.60564995,  0.800000012
  13334,   8.21249962,   8.60564995,  0.800000012
  13335,   8.21249962,   8.60564995,   1.02499998
  13336,   8.21249962,   8.60564995,   1.52499998
  13337,   8.21249962,   8.60564995,    2.0250001
  13338,   8.21249962,   8.60564995,   2.51250005
  13339,   8.21249962,   8.60564995,           3.
  13340,   7.38749981,   8.60564995,           3.
  13341,   7.38749981,   8.60564995,    2.6500001
  13342,   9.03750038,   8.92938995,   1.14999998
  13343,   9.03750038,   8.92938995,  0.800000012
  13344,        8.625,   8.92938995,  0.800000012
  13345,   8.21249962,   8.92938995,  0.800000012
  13346,   8.21249962,   8.92938995,   1.02499998
  13347,   8.21249962,   8.92938995,   1.52499998
  13348,   8.21249962,   8.92938995,    2.0250001
  13349,   8.21249962,   8.92938995,   2.51250005
  13350,   8.21249962,   8.92938995,           3.
  13351,   7.38749981,   8.92938995,           3.
  13352,   7.38749981,   8.92938995,    2.6500001
  13353,   9.03750038,   9.67059994,   1.14999998
  13354,   9.03750038,   9.67059994,  0.800000012
  13355,        8.625,   9.67059994,  0.800000012
  13356,   8.21249962,   9.67059994,  0.800000012
  13357,   8.21249962,   9.67059994,   1.02499998
  13358,   8.21249962,   9.67059994,   1.52499998
  13359,   8.21249962,   9.67059994,    2.0250001
  13360,   8.21249962,   9.67059994,   2.51250005
  13361,   8.21249962,   9.67059994,           3.
  13362,   7.38749981,   9.67059994,           3.
  13363,   7.38749981,   9.67059994,    2.6500001
  13364,   9.03750038,   9.99435043,   1.14999998
  13365,   9.03750038,   9.99435043,  0.800000012
  13366,        8.625,   9.99435043,  0.800000012
  13367,   8.21249962,   9.99435043,  0.800000012
  13368,   8.21249962,   9.99435043,   1.02499998
  13369,   8.21249962,   9.99435043,   1.52499998
  13370,   8.21249962,   9.99435043,    2.0250001
  13371,   8.21249962,   9.99435043,   2.51250005
  13372,   8.21249962,   9.99435043,           3.
  13373,   7.38749981,   9.99435043,           3.
  13374,   7.38749981,   9.99435043,    2.6500001
  13375,   9.03750038,      10.3181,   1.14999998
  13376,   9.03750038,      10.3181,  0.800000012
  13377,        8.625,      10.3181,  0.800000012
  13378,   8.21249962,      10.3181,  0.800000012
  13379,   8.21249962,      10.3181,   1.02499998
  13380,   8.21249962,      10.3181,   1.52499998
  13381,   8.21249962,      10.3181,    2.0250001
  13382,   8.21249962,      10.3181,   2.51250005
  13383,   8.21249962,      10.3181,           3.
  13384,   7.38749981,      10.3181,           3.
  13385,   7.38749981,      10.3181,    2.6500001
  13386,   9.03750038,   10.5799999,   1.14999998
  13387,   9.03750038,   10.5799999,  0.800000012
  13388,        8.625,   10.5799999,  0.800000012
  13389,   8.21249962,   10.5799999,  0.800000012
  13390,   8.21249962,   10.5799999,   1.02499998
  13391,   8.21249962,   10.5799999,   1.52499998
  13392,   8.21249962,   10.5799999,    2.0250001
  13393,   8.21249962,   10.5799999,   2.51250005
  13394,   8.21249962,   10.5799999,           3.
  13395,   7.38749981,   10.5799999,           3.
  13396,   7.38749981,   10.5799999,    2.6500001
  13397,   9.03750038,   11.1975002,   1.14999998
  13398,   9.03750038,   11.1975002,  0.800000012
  13399,        8.625,   11.1975002,  0.800000012
  13400,   8.21249962,   11.1975002,  0.800000012
  13401,   8.21249962,   11.1975002,   1.02499998
  13402,   8.21249962,   11.1975002,   1.52499998
  13403,   8.21249962,   11.1975002,    2.0250001
  13404,   8.21249962,   11.1975002,   2.51250005
  13405,   8.21249962,   11.1975002,           3.
  13406,   7.38749981,   11.1975002,           3.
  13407,   7.38749981,   11.1975002,    2.6500001
  13408,   9.03750038,   11.8149996,   1.14999998
  13409,   9.03750038,   11.8149996,  0.800000012
  13410,        8.625,   11.8149996,  0.800000012
  13411,   8.21249962,   11.8149996,  0.800000012
  13412,   8.21249962,   11.8149996,   1.02499998
  13413,   8.21249962,   11.8149996,   1.52499998
  13414,   8.21249962,   11.8149996,    2.0250001
  13415,   8.21249962,   11.8149996,   2.51250005
  13416,   8.21249962,   11.8149996,           3.
  13417,   7.38749981,   11.8149996,           3.
  13418,   7.38749981,   11.8149996,    2.6500001
  13419,   9.03750038,   12.4324999,   1.14999998
  13420,   9.03750038,   12.4324999,  0.800000012
  13421,        8.625,   12.4324999,  0.800000012
  13422,   8.21249962,   12.4324999,  0.800000012
  13423,   8.21249962,   12.4324999,   1.02499998
  13424,   8.21249962,   12.4324999,   1.52499998
  13425,   8.21249962,   12.4324999,    2.0250001
  13426,   8.21249962,   12.4324999,   2.51250005
  13427,   8.21249962,   12.4324999,           3.
  13428,   7.38749981,   12.4324999,           3.
  13429,   7.38749981,   12.4324999,    2.6500001
  13430,   9.03750038,   13.0500002,   1.14999998
  13431,   9.03750038,   13.0500002,  0.800000012
  13432,        8.625,   13.0500002,  0.800000012
  13433,   8.21249962,   13.0500002,  0.800000012
  13434,   8.21249962,   13.0500002,   1.02499998
  13435,   8.21249962,   13.0500002,   1.52499998
  13436,   8.21249962,   13.0500002,    2.0250001
  13437,   8.21249962,   13.0500002,   2.51250005
  13438,   8.21249962,   13.0500002,           3.
  13439,   7.38749981,   13.0500002,           3.
  13440,   7.38749981,   13.0500002,    2.6500001
  13441,   9.03750038,   13.6674995,   1.14999998
  13442,   9.03750038,   13.6674995,  0.800000012
  13443,        8.625,   13.6674995,  0.800000012
  13444,   8.21249962,   13.6674995,  0.800000012
  13445,   8.21249962,   13.6674995,   1.02499998
  13446,   8.21249962,   13.6674995,   1.52499998
  13447,   8.21249962,   13.6674995,    2.0250001
  13448,   8.21249962,   13.6674995,   2.51250005
  13449,   8.21249962,   13.6674995,           3.
  13450,   7.38749981,   13.6674995,           3.
  13451,   7.38749981,   13.6674995,    2.6500001
  13452,   9.03750038,   14.2849998,   1.14999998
  13453,   9.03750038,   14.2849998,  0.800000012
  13454,        8.625,   14.2849998,  0.800000012
  13455,   8.21249962,   14.2849998,  0.800000012
  13456,   8.21249962,   14.2849998,   1.02499998
  13457,   8.21249962,   14.2849998,   1.52499998
  13458,   8.21249962,   14.2849998,    2.0250001
  13459,   8.21249962,   14.2849998,   2.51250005
  13460,   8.21249962,   14.2849998,           3.
  13461,   7.38749981,   14.2849998,           3.
  13462,   7.38749981,   14.2849998,    2.6500001
  13463,   9.03750038,   14.9025002,   1.14999998
  13464,   9.03750038,   14.9025002,  0.800000012
  13465,        8.625,   14.9025002,  0.800000012
  13466,   8.21249962,   14.9025002,  0.800000012
  13467,   8.21249962,   14.9025002,   1.02499998
  13468,   8.21249962,   14.9025002,   1.52499998
  13469,   8.21249962,   14.9025002,    2.0250001
  13470,   8.21249962,   14.9025002,   2.51250005
  13471,   8.21249962,   14.9025002,           3.
  13472,   7.38749981,   14.9025002,           3.
  13473,   7.38749981,   14.9025002,    2.6500001
  13474,   9.03750038,   15.5200005,   1.14999998
  13475,   9.03750038,   15.5200005,  0.800000012
  13476,        8.625,   15.5200005,  0.800000012
  13477,   8.21249962,   15.5200005,  0.800000012
  13478,   8.21249962,   15.5200005,   1.02499998
  13479,   8.21249962,   15.5200005,   1.52499998
  13480,   8.21249962,   15.5200005,    2.0250001
  13481,   8.21249962,   15.5200005,   2.51250005
  13482,   8.21249962,   15.5200005,           3.
  13483,   7.38749981,   15.5200005,           3.
  13484,   7.38749981,   15.5200005,    2.6500001
  13485,   9.03750038,   15.7819004,   1.14999998
  13486,   9.03750038,   15.7819004,  0.800000012
  13487,        8.625,   15.7819004,  0.800000012
  13488,   8.21249962,   15.7819004,  0.800000012
  13489,   8.21249962,   15.7819004,   1.02499998
  13490,   8.21249962,   15.7819004,   1.52499998
  13491,   8.21249962,   15.7819004,    2.0250001
  13492,   8.21249962,   15.7819004,   2.51250005
  13493,   8.21249962,   15.7819004,           3.
  13494,   7.38749981,   15.7819004,           3.
  13495,   7.38749981,   15.7819004,    2.6500001
  13496,   9.03750038,   16.1056004,   1.14999998
  13497,   9.03750038,   16.1056004,  0.800000012
  13498,        8.625,   16.1056004,  0.800000012
  13499,   8.21249962,   16.1056004,  0.800000012
  13500,   8.21249962,   16.1056004,   1.02499998
  13501,   8.21249962,   16.1056004,   1.52499998
  13502,   8.21249962,   16.1056004,    2.0250001
  13503,   8.21249962,   16.1056004,   2.51250005
  13504,   8.21249962,   16.1056004,           3.
  13505,   7.38749981,   16.1056004,           3.
  13506,   7.38749981,   16.1056004,    2.6500001
  13507,   9.03750038,   16.4293003,   1.14999998
  13508,   9.03750038,   16.4293003,  0.800000012
  13509,        8.625,   16.4293003,  0.800000012
  13510,   8.21249962,   16.4293003,  0.800000012
  13511,   8.21249962,   16.4293003,   1.02499998
  13512,   8.21249962,   16.4293003,   1.52499998
  13513,   8.21249962,   16.4293003,    2.0250001
  13514,   8.21249962,   16.4293003,   2.51250005
  13515,   8.21249962,   16.4293003,           3.
  13516,   7.38749981,   16.4293003,           3.
  13517,   7.38749981,   16.4293003,    2.6500001
  13518,   9.03750038,   17.1706009,   1.14999998
  13519,   9.03750038,   17.1706009,  0.800000012
  13520,        8.625,   17.1706009,  0.800000012
  13521,   8.21249962,   17.1706009,  0.800000012
  13522,   8.21249962,   17.1706009,   1.02499998
  13523,   8.21249962,   17.1706009,   1.52499998
  13524,   8.21249962,   17.1706009,    2.0250001
  13525,   8.21249962,   17.1706009,   2.51250005
  13526,   8.21249962,   17.1706009,           3.
  13527,   7.38749981,   17.1706009,           3.
  13528,   7.38749981,   17.1706009,    2.6500001
  13529,   9.03750038,   17.4943008,   1.14999998
  13530,   9.03750038,   17.4943008,  0.800000012
  13531,        8.625,   17.4943008,  0.800000012
  13532,   8.21249962,   17.4943008,  0.800000012
  13533,   8.21249962,   17.4943008,   1.02499998
  13534,   8.21249962,   17.4943008,   1.52499998
  13535,   8.21249962,   17.4943008,    2.0250001
  13536,   8.21249962,   17.4943008,   2.51250005
  13537,   8.21249962,   17.4943008,           3.
  13538,   7.38749981,   17.4943008,           3.
  13539,   7.38749981,   17.4943008,    2.6500001
  13540,   9.03750038,      17.8181,   1.14999998
  13541,   9.03750038,      17.8181,  0.800000012
  13542,        8.625,      17.8181,  0.800000012
  13543,   8.21249962,      17.8181,  0.800000012
  13544,   8.21249962,      17.8181,   1.02499998
  13545,   8.21249962,      17.8181,   1.52499998
  13546,   8.21249962,      17.8181,    2.0250001
  13547,   8.21249962,      17.8181,   2.51250005
  13548,   8.21249962,      17.8181,           3.
  13549,   7.38749981,      17.8181,           3.
  13550,   7.38749981,      17.8181,    2.6500001
  13551,   9.03750038,   18.0799999,   1.14999998
  13552,   9.03750038,   18.0799999,  0.800000012
  13553,        8.625,   18.0799999,  0.800000012
  13554,   8.21249962,   18.0799999,  0.800000012
  13555,   8.21249962,   18.0799999,   1.02499998
  13556,   8.21249962,   18.0799999,   1.52499998
  13557,   8.21249962,   18.0799999,    2.0250001
  13558,   8.21249962,   18.0799999,   2.51250005
  13559,   8.21249962,   18.0799999,           3.
  13560,   7.38749981,   18.0799999,           3.
  13561,   7.38749981,   18.0799999,    2.6500001
  13562,   9.03750038,   18.6975002,   1.14999998
  13563,   9.03750038,   18.6975002,  0.800000012
  13564,        8.625,   18.6975002,  0.800000012
  13565,   8.21249962,   18.6975002,  0.800000012
  13566,   8.21249962,   18.6975002,   1.02499998
  13567,   8.21249962,   18.6975002,   1.52499998
  13568,   8.21249962,   18.6975002,    2.0250001
  13569,   8.21249962,   18.6975002,   2.51250005
  13570,   8.21249962,   18.6975002,           3.
  13571,   7.38749981,   18.6975002,           3.
  13572,   7.38749981,   18.6975002,    2.6500001
  13573,   9.03750038,   19.3150005,   1.14999998
  13574,   9.03750038,   19.3150005,  0.800000012
  13575,        8.625,   19.3150005,  0.800000012
  13576,   8.21249962,   19.3150005,  0.800000012
  13577,   8.21249962,   19.3150005,   1.02499998
  13578,   8.21249962,   19.3150005,   1.52499998
  13579,   8.21249962,   19.3150005,    2.0250001
  13580,   8.21249962,   19.3150005,   2.51250005
  13581,   8.21249962,   19.3150005,           3.
  13582,   7.38749981,   19.3150005,           3.
  13583,   7.38749981,   19.3150005,    2.6500001
  13584,   9.03750038,   19.9325008,   1.14999998
  13585,   9.03750038,   19.9325008,  0.800000012
  13586,        8.625,   19.9325008,  0.800000012
  13587,   8.21249962,   19.9325008,  0.800000012
  13588,   8.21249962,   19.9325008,   1.02499998
  13589,   8.21249962,   19.9325008,   1.52499998
  13590,   8.21249962,   19.9325008,    2.0250001
  13591,   8.21249962,   19.9325008,   2.51250005
  13592,   8.21249962,   19.9325008,           3.
  13593,   7.38749981,   19.9325008,           3.
  13594,   7.38749981,   19.9325008,    2.6500001
  13595,   9.03750038,   20.5499001,   1.14999998
  13596,   9.03750038,   20.5499001,  0.800000012
  13597,        8.625,   20.5499001,  0.800000012
  13598,   8.21249962,   20.5499001,  0.800000012
  13599,   8.21249962,   20.5499001,   1.02499998
  13600,   8.21249962,   20.5499001,   1.52499998
  13601,   8.21249962,   20.5499001,    2.0250001
  13602,   8.21249962,   20.5499001,   2.51250005
  13603,   8.21249962,   20.5499001,           3.
  13604,   7.38749981,   20.5499001,           3.
  13605,   7.38749981,   20.5499001,    2.6500001
  13606,   9.03750038,   21.1674995,   1.14999998
  13607,   9.03750038,   21.1674995,  0.800000012
  13608,        8.625,   21.1674995,  0.800000012
  13609,   8.21249962,   21.1674995,  0.800000012
  13610,   8.21249962,   21.1674995,   1.02499998
  13611,   8.21249962,   21.1674995,   1.52499998
  13612,   8.21249962,   21.1674995,    2.0250001
  13613,   8.21249962,   21.1674995,   2.51250005
  13614,   8.21249962,   21.1674995,           3.
  13615,   7.38749981,   21.1674995,           3.
  13616,   7.38749981,   21.1674995,    2.6500001
  13617,   9.03750038,   21.7849998,   1.14999998
  13618,   9.03750038,   21.7849998,  0.800000012
  13619,        8.625,   21.7849998,  0.800000012
  13620,   8.21249962,   21.7849998,  0.800000012
  13621,   8.21249962,   21.7849998,   1.02499998
  13622,   8.21249962,   21.7849998,   1.52499998
  13623,   8.21249962,   21.7849998,    2.0250001
  13624,   8.21249962,   21.7849998,   2.51250005
  13625,   8.21249962,   21.7849998,           3.
  13626,   7.38749981,   21.7849998,           3.
  13627,   7.38749981,   21.7849998,    2.6500001
  13628,   9.03750038,   22.4025002,   1.14999998
  13629,   9.03750038,   22.4025002,  0.800000012
  13630,        8.625,   22.4025002,  0.800000012
  13631,   8.21249962,   22.4025002,  0.800000012
  13632,   8.21249962,   22.4025002,   1.02499998
  13633,   8.21249962,   22.4025002,   1.52499998
  13634,   8.21249962,   22.4025002,    2.0250001
  13635,   8.21249962,   22.4025002,   2.51250005
  13636,   8.21249962,   22.4025002,           3.
  13637,   7.38749981,   22.4025002,           3.
  13638,   7.38749981,   22.4025002,    2.6500001
  13639,   9.03750038,   23.0200005,   1.14999998
  13640,   9.03750038,   23.0200005,  0.800000012
  13641,        8.625,   23.0200005,  0.800000012
  13642,   8.21249962,   23.0200005,  0.800000012
  13643,   8.21249962,   23.0200005,   1.02499998
  13644,   8.21249962,   23.0200005,   1.52499998
  13645,   8.21249962,   23.0200005,    2.0250001
  13646,   8.21249962,   23.0200005,   2.51250005
  13647,   8.21249962,   23.0200005,           3.
  13648,   7.38749981,   23.0200005,           3.
  13649,   7.38749981,   23.0200005,    2.6500001
  13650,   9.03750038,   23.2819004,   1.14999998
  13651,   9.03750038,   23.2819004,  0.800000012
  13652,        8.625,   23.2819004,  0.800000012
  13653,   8.21249962,   23.2819004,  0.800000012
  13654,   8.21249962,   23.2819004,   1.02499998
  13655,   8.21249962,   23.2819004,   1.52499998
  13656,   8.21249962,   23.2819004,    2.0250001
  13657,   8.21249962,   23.2819004,   2.51250005
  13658,   8.21249962,   23.2819004,           3.
  13659,   7.38749981,   23.2819004,           3.
  13660,   7.38749981,   23.2819004,    2.6500001
  13661,   9.03750038,   23.6056004,   1.14999998
  13662,   9.03750038,   23.6056004,  0.800000012
  13663,        8.625,   23.6056004,  0.800000012
  13664,   8.21249962,   23.6056004,  0.800000012
  13665,   8.21249962,   23.6056004,   1.02499998
  13666,   8.21249962,   23.6056004,   1.52499998
  13667,   8.21249962,   23.6056004,    2.0250001
  13668,   8.21249962,   23.6056004,   2.51250005
  13669,   8.21249962,   23.6056004,           3.
  13670,   7.38749981,   23.6056004,           3.
  13671,   7.38749981,   23.6056004,    2.6500001
  13672,   9.03750038,   23.9293003,   1.14999998
  13673,   9.03750038,   23.9293003,  0.800000012
  13674,        8.625,   23.9293003,  0.800000012
  13675,   8.21249962,   23.9293003,  0.800000012
  13676,   8.21249962,   23.9293003,   1.02499998
  13677,   8.21249962,   23.9293003,   1.52499998
  13678,   8.21249962,   23.9293003,    2.0250001
  13679,   8.21249962,   23.9293003,   2.51250005
  13680,   8.21249962,   23.9293003,           3.
  13681,   7.38749981,   23.9293003,           3.
  13682,   7.38749981,   23.9293003,    2.6500001
  13683,   9.03750038,   24.6706009,   1.14999998
  13684,   9.03750038,   24.6706009,  0.800000012
  13685,        8.625,   24.6706009,  0.800000012
  13686,   8.21249962,   24.6706009,  0.800000012
  13687,   8.21249962,   24.6706009,   1.02499998
  13688,   8.21249962,   24.6706009,   1.52499998
  13689,   8.21249962,   24.6706009,    2.0250001
  13690,   8.21249962,   24.6706009,   2.51250005
  13691,   8.21249962,   24.6706009,           3.
  13692,   7.38749981,   24.6706009,           3.
  13693,   7.38749981,   24.6706009,    2.6500001
  13694,   9.03750038,   24.9943008,   1.14999998
  13695,   9.03750038,   24.9943008,  0.800000012
  13696,        8.625,   24.9943008,  0.800000012
  13697,   8.21249962,   24.9943008,  0.800000012
  13698,   8.21249962,   24.9943008,   1.02499998
  13699,   8.21249962,   24.9943008,   1.52499998
  13700,   8.21249962,   24.9943008,    2.0250001
  13701,   8.21249962,   24.9943008,   2.51250005
  13702,   8.21249962,   24.9943008,           3.
  13703,   7.38749981,   24.9943008,           3.
  13704,   7.38749981,   24.9943008,    2.6500001
  13705,   9.03750038,      25.3181,   1.14999998
  13706,   9.03750038,      25.3181,  0.800000012
  13707,        8.625,      25.3181,  0.800000012
  13708,   8.21249962,      25.3181,  0.800000012
  13709,   8.21249962,      25.3181,   1.02499998
  13710,   8.21249962,      25.3181,   1.52499998
  13711,   8.21249962,      25.3181,    2.0250001
  13712,   8.21249962,      25.3181,   2.51250005
  13713,   8.21249962,      25.3181,           3.
  13714,   7.38749981,      25.3181,           3.
  13715,   7.38749981,      25.3181,    2.6500001
  13716,   9.03750038,   25.5799999,   1.14999998
  13717,   9.03750038,   25.5799999,  0.800000012
  13718,        8.625,   25.5799999,  0.800000012
  13719,   8.21249962,   25.5799999,  0.800000012
  13720,   8.21249962,   25.5799999,   1.02499998
  13721,   8.21249962,   25.5799999,   1.52499998
  13722,   8.21249962,   25.5799999,    2.0250001
  13723,   8.21249962,   25.5799999,   2.51250005
  13724,   8.21249962,   25.5799999,           3.
  13725,   7.38749981,   25.5799999,           3.
  13726,   7.38749981,   25.5799999,    2.6500001
  13727,   9.03750038,   26.1975002,   1.14999998
  13728,   9.03750038,   26.1975002,  0.800000012
  13729,        8.625,   26.1975002,  0.800000012
  13730,   8.21249962,   26.1975002,  0.800000012
  13731,   8.21249962,   26.1975002,   1.02499998
  13732,   8.21249962,   26.1975002,   1.52499998
  13733,   8.21249962,   26.1975002,    2.0250001
  13734,   8.21249962,   26.1975002,   2.51250005
  13735,   8.21249962,   26.1975002,           3.
  13736,   7.38749981,   26.1975002,           3.
  13737,   7.38749981,   26.1975002,    2.6500001
  13738,   9.03750038,   26.8150005,   1.14999998
  13739,   9.03750038,   26.8150005,  0.800000012
  13740,        8.625,   26.8150005,  0.800000012
  13741,   8.21249962,   26.8150005,  0.800000012
  13742,   8.21249962,   26.8150005,   1.02499998
  13743,   8.21249962,   26.8150005,   1.52499998
  13744,   8.21249962,   26.8150005,    2.0250001
  13745,   8.21249962,   26.8150005,   2.51250005
  13746,   8.21249962,   26.8150005,           3.
  13747,   7.38749981,   26.8150005,           3.
  13748,   7.38749981,   26.8150005,    2.6500001
  13749,   9.03750038,   27.4325008,   1.14999998
  13750,   9.03750038,   27.4325008,  0.800000012
  13751,        8.625,   27.4325008,  0.800000012
  13752,   8.21249962,   27.4325008,  0.800000012
  13753,   8.21249962,   27.4325008,   1.02499998
  13754,   8.21249962,   27.4325008,   1.52499998
  13755,   8.21249962,   27.4325008,    2.0250001
  13756,   8.21249962,   27.4325008,   2.51250005
  13757,   8.21249962,   27.4325008,           3.
  13758,   7.38749981,   27.4325008,           3.
  13759,   7.38749981,   27.4325008,    2.6500001
  13760,   9.03750038,   28.0499001,   1.14999998
  13761,   9.03750038,   28.0499001,  0.800000012
  13762,        8.625,   28.0499001,  0.800000012
  13763,   8.21249962,   28.0499001,  0.800000012
  13764,   8.21249962,   28.0499001,   1.02499998
  13765,   8.21249962,   28.0499001,   1.52499998
  13766,   8.21249962,   28.0499001,    2.0250001
  13767,   8.21249962,   28.0499001,   2.51250005
  13768,   8.21249962,   28.0499001,           3.
  13769,   7.38749981,   28.0499001,           3.
  13770,   7.38749981,   28.0499001,    2.6500001
  13771,   9.03750038,   28.6674995,   1.14999998
  13772,   9.03750038,   28.6674995,  0.800000012
  13773,        8.625,   28.6674995,  0.800000012
  13774,   8.21249962,   28.6674995,  0.800000012
  13775,   8.21249962,   28.6674995,   1.02499998
  13776,   8.21249962,   28.6674995,   1.52499998
  13777,   8.21249962,   28.6674995,    2.0250001
  13778,   8.21249962,   28.6674995,   2.51250005
  13779,   8.21249962,   28.6674995,           3.
  13780,   7.38749981,   28.6674995,           3.
  13781,   7.38749981,   28.6674995,    2.6500001
  13782,   9.03750038,   29.2849998,   1.14999998
  13783,   9.03750038,   29.2849998,  0.800000012
  13784,        8.625,   29.2849998,  0.800000012
  13785,   8.21249962,   29.2849998,  0.800000012
  13786,   8.21249962,   29.2849998,   1.02499998
  13787,   8.21249962,   29.2849998,   1.52499998
  13788,   8.21249962,   29.2849998,    2.0250001
  13789,   8.21249962,   29.2849998,   2.51250005
  13790,   8.21249962,   29.2849998,           3.
  13791,   7.38749981,   29.2849998,           3.
  13792,   7.38749981,   29.2849998,    2.6500001
  13793,   9.03750038,   29.9025002,   1.14999998
  13794,   9.03750038,   29.9025002,  0.800000012
  13795,        8.625,   29.9025002,  0.800000012
  13796,   8.21249962,   29.9025002,  0.800000012
  13797,   8.21249962,   29.9025002,   1.02499998
  13798,   8.21249962,   29.9025002,   1.52499998
  13799,   8.21249962,   29.9025002,    2.0250001
  13800,   8.21249962,   29.9025002,   2.51250005
  13801,   8.21249962,   29.9025002,           3.
  13802,   7.38749981,   29.9025002,           3.
  13803,   7.38749981,   29.9025002,    2.6500001
  13804,   9.03750038,   30.5200005,   1.14999998
  13805,   9.03750038,   30.5200005,  0.800000012
  13806,        8.625,   30.5200005,  0.800000012
  13807,   8.21249962,   30.5200005,  0.800000012
  13808,   8.21249962,   30.5200005,   1.02499998
  13809,   8.21249962,   30.5200005,   1.52499998
  13810,   8.21249962,   30.5200005,    2.0250001
  13811,   8.21249962,   30.5200005,   2.51250005
  13812,   8.21249962,   30.5200005,           3.
  13813,   7.38749981,   30.5200005,           3.
  13814,   7.38749981,   30.5200005,    2.6500001
  13815,   9.03750038,   30.7819004,   1.14999998
  13816,   9.03750038,   30.7819004,  0.800000012
  13817,        8.625,   30.7819004,  0.800000012
  13818,   8.21249962,   30.7819004,  0.800000012
  13819,   8.21249962,   30.7819004,   1.02499998
  13820,   8.21249962,   30.7819004,   1.52499998
  13821,   8.21249962,   30.7819004,    2.0250001
  13822,   8.21249962,   30.7819004,   2.51250005
  13823,   8.21249962,   30.7819004,           3.
  13824,   7.38749981,   30.7819004,           3.
  13825,   7.38749981,   30.7819004,    2.6500001
  13826,   9.03750038,   31.1056004,   1.14999998
  13827,   9.03750038,   31.1056004,  0.800000012
  13828,        8.625,   31.1056004,  0.800000012
  13829,   8.21249962,   31.1056004,  0.800000012
  13830,   8.21249962,   31.1056004,   1.02499998
  13831,   8.21249962,   31.1056004,   1.52499998
  13832,   8.21249962,   31.1056004,    2.0250001
  13833,   8.21249962,   31.1056004,   2.51250005
  13834,   8.21249962,   31.1056004,           3.
  13835,   7.38749981,   31.1056004,           3.
  13836,   7.38749981,   31.1056004,    2.6500001
  13837,   9.03750038,   31.4293003,   1.14999998
  13838,   9.03750038,   31.4293003,  0.800000012
  13839,        8.625,   31.4293003,  0.800000012
  13840,   8.21249962,   31.4293003,  0.800000012
  13841,   8.21249962,   31.4293003,   1.02499998
  13842,   8.21249962,   31.4293003,   1.52499998
  13843,   8.21249962,   31.4293003,    2.0250001
  13844,   8.21249962,   31.4293003,   2.51250005
  13845,   8.21249962,   31.4293003,           3.
  13846,   7.38749981,   31.4293003,           3.
  13847,   7.38749981,   31.4293003,    2.6500001
  13848,   9.03750038,   32.1706009,   1.14999998
  13849,   9.03750038,   32.1706009,  0.800000012
  13850,        8.625,   32.1706009,  0.800000012
  13851,   8.21249962,   32.1706009,  0.800000012
  13852,   8.21249962,   32.1706009,   1.02499998
  13853,   8.21249962,   32.1706009,   1.52499998
  13854,   8.21249962,   32.1706009,    2.0250001
  13855,   8.21249962,   32.1706009,   2.51250005
  13856,   8.21249962,   32.1706009,           3.
  13857,   7.38749981,   32.1706009,           3.
  13858,   7.38749981,   32.1706009,    2.6500001
  13859,   9.03750038,   32.4943008,   1.14999998
  13860,   9.03750038,   32.4943008,  0.800000012
  13861,        8.625,   32.4943008,  0.800000012
  13862,   8.21249962,   32.4943008,  0.800000012
  13863,   8.21249962,   32.4943008,   1.02499998
  13864,   8.21249962,   32.4943008,   1.52499998
  13865,   8.21249962,   32.4943008,    2.0250001
  13866,   8.21249962,   32.4943008,   2.51250005
  13867,   8.21249962,   32.4943008,           3.
  13868,   7.38749981,   32.4943008,           3.
  13869,   7.38749981,   32.4943008,    2.6500001
  13870,   9.03750038,      32.8181,   1.14999998
  13871,   9.03750038,      32.8181,  0.800000012
  13872,        8.625,      32.8181,  0.800000012
  13873,   8.21249962,      32.8181,  0.800000012
  13874,   8.21249962,      32.8181,   1.02499998
  13875,   8.21249962,      32.8181,   1.52499998
  13876,   8.21249962,      32.8181,    2.0250001
  13877,   8.21249962,      32.8181,   2.51250005
  13878,   8.21249962,      32.8181,           3.
  13879,   7.38749981,      32.8181,           3.
  13880,   7.38749981,      32.8181,    2.6500001
  13881,   9.03750038,   33.0800018,   1.14999998
  13882,   9.03750038,   33.0800018,  0.800000012
  13883,        8.625,   33.0800018,  0.800000012
  13884,   8.21249962,   33.0800018,  0.800000012
  13885,   8.21249962,   33.0800018,   1.02499998
  13886,   8.21249962,   33.0800018,   1.52499998
  13887,   8.21249962,   33.0800018,    2.0250001
  13888,   8.21249962,   33.0800018,   2.51250005
  13889,   8.21249962,   33.0800018,           3.
  13890,   7.38749981,   33.0800018,           3.
  13891,   7.38749981,   33.0800018,    2.6500001
  13893,   8.16250038,   33.0800018,    2.0250001
  13894,   8.16250038,   33.0800018,   1.52499998
  13895,   8.16250038,   33.0800018,   1.02499998
  13896,   8.16250038,      32.8181,    2.0250001
  13897,   8.16250038,      32.8181,   1.52499998
  13898,   8.16250038,      32.8181,   1.02499998
  13899,   8.16250038,   32.4943008,    2.0250001
  13900,   8.16250038,   32.4943008,   1.52499998
  13901,   8.16250038,   32.4943008,   1.02499998
  13902,   8.16250038,   32.1706009,    2.0250001
  13903,   8.16250038,   32.1706009,   1.52499998
  13904,   8.16250038,   32.1706009,   1.02499998
  13905,   8.16250038,   31.4293003,    2.0250001
  13906,   8.16250038,   31.4293003,   1.52499998
  13907,   8.16250038,   31.4293003,   1.02499998
  13908,   8.16250038,   31.1056004,    2.0250001
  13909,   8.16250038,   31.1056004,   1.52499998
  13910,   8.16250038,   31.1056004,   1.02499998
  13911,   8.16250038,   30.7819004,    2.0250001
  13912,   8.16250038,   30.7819004,   1.52499998
  13913,   8.16250038,   30.7819004,   1.02499998
  13914,        7.375,   30.5200005, 0.0500000007
  13915,        7.625,   30.5200005, 0.0500000007
  13916,         7.75,   30.5200005, 0.0500000007
  13917,        7.875,   30.5200005, 0.0500000007
  13918,   8.16250038,   30.5200005, 0.0500000007
  13919,   8.16250038,   30.5200005,    2.0250001
  13920,   8.16250038,   30.5200005,   1.52499998
  13921,   8.16250038,   30.5200005,   1.02499998
  13922,   8.16250038,   30.5200005,  0.537500024
  13923,        7.375,   29.9025002, 0.0500000007
  13924,        7.625,   29.9025002, 0.0500000007
  13925,         7.75,   29.9025002, 0.0500000007
  13926,        7.875,   29.9025002, 0.0500000007
  13927,   8.16250038,   29.9025002, 0.0500000007
  13928,   8.16250038,   29.9025002,    2.0250001
  13929,   8.16250038,   29.9025002,  0.537500024
  13930,   8.16250038,   29.9025002,   1.52499998
  13931,   8.16250038,   29.9025002,   1.02499998
  13932,        7.375,   29.2849998, 0.0500000007
  13933,        7.625,   29.2849998, 0.0500000007
  13934,         7.75,   29.2849998, 0.0500000007
  13935,        7.875,   29.2849998, 0.0500000007
  13936,   8.16250038,   29.2849998, 0.0500000007
  13937,   8.16250038,   29.2849998,    2.0250001
  13938,   8.16250038,   29.2849998,  0.537500024
  13939,   8.16250038,   29.2849998,   1.52499998
  13940,   8.16250038,   29.2849998,   1.02499998
  13941,        7.375,   28.6674995, 0.0500000007
  13942,        7.375,   28.0499001, 0.0500000007
  13943,        7.375,   27.4325008, 0.0500000007
  13944,        7.375,   26.8150005, 0.0500000007
  13945,        7.375,   26.1975002, 0.0500000007
  13946,        7.375,   25.5799999, 0.0500000007
  13947,        7.625,   28.6674995, 0.0500000007
  13948,         7.75,   28.6674995, 0.0500000007
  13949,        7.875,   28.6674995, 0.0500000007
  13950,   8.16250038,   28.6674995, 0.0500000007
  13951,   8.16250038,   28.6674995,    2.0250001
  13952,   8.16250038,   28.6674995,  0.537500024
  13953,   8.16250038,   28.6674995,   1.52499998
  13954,   8.16250038,   28.6674995,   1.02499998
  13955,        7.625,   28.0499001, 0.0500000007
  13956,        7.625,   27.4325008, 0.0500000007
  13957,        7.625,   26.8150005, 0.0500000007
  13958,        7.625,   26.1975002, 0.0500000007
  13959,        7.625,   25.5799999, 0.0500000007
  13960,         7.75,   28.0499001, 0.0500000007
  13961,        7.875,   28.0499001, 0.0500000007
  13962,   8.16250038,   28.0499001, 0.0500000007
  13963,   8.16250038,   28.0499001,    2.0250001
  13964,   8.16250038,   28.0499001,  0.537500024
  13965,   8.16250038,   28.0499001,   1.52499998
  13966,   8.16250038,   28.0499001,   1.02499998
  13967,         7.75,   27.4325008, 0.0500000007
  13968,         7.75,   26.8150005, 0.0500000007
  13969,         7.75,   26.1975002, 0.0500000007
  13970,         7.75,   25.5799999, 0.0500000007
  13971,        7.875,   27.4325008, 0.0500000007
  13972,   8.16250038,   27.4325008, 0.0500000007
  13973,   8.16250038,   27.4325008,    2.0250001
  13974,   8.16250038,   27.4325008,  0.537500024
  13975,   8.16250038,   27.4325008,   1.52499998
  13976,   8.16250038,   27.4325008,   1.02499998
  13977,        7.875,   26.8150005, 0.0500000007
  13978,        7.875,   26.1975002, 0.0500000007
  13979,        7.875,   25.5799999, 0.0500000007
  13980,   8.16250038,   26.8150005, 0.0500000007
  13981,   8.16250038,   26.8150005,    2.0250001
  13982,   8.16250038,   26.8150005,  0.537500024
  13983,   8.16250038,   26.8150005,   1.52499998
  13984,   8.16250038,   26.8150005,   1.02499998
  13985,   8.16250038,   26.1975002, 0.0500000007
  13986,   8.16250038,   25.5799999, 0.0500000007
  13987,   8.16250038,   26.1975002,    2.0250001
  13988,   8.16250038,   26.1975002,  0.537500024
  13989,   8.16250038,   26.1975002,   1.52499998
  13990,   8.16250038,   26.1975002,   1.02499998
  13991,   8.16250038,   25.5799999,  0.537500024
  13992,   8.16250038,   25.5799999,    2.0250001
  13993,   8.16250038,   25.5799999,   1.52499998
  13994,   8.16250038,   25.5799999,   1.02499998
  13995,   8.16250038,      25.3181,    2.0250001
  13996,   8.16250038,      25.3181,   1.52499998
  13997,   8.16250038,      25.3181,   1.02499998
  13998,   8.16250038,   24.9943008,    2.0250001
  13999,   8.16250038,   24.9943008,   1.52499998
  14000,   8.16250038,   24.9943008,   1.02499998
  14001,   8.16250038,   24.6706009,    2.0250001
  14002,   8.16250038,   24.6706009,   1.52499998
  14003,   8.16250038,   24.6706009,   1.02499998
  14004,   8.16250038,   23.9293003,    2.0250001
  14005,   8.16250038,   23.9293003,   1.52499998
  14006,   8.16250038,   23.9293003,   1.02499998
  14007,   8.16250038,   23.6056004,    2.0250001
  14008,   8.16250038,   23.6056004,   1.52499998
  14009,   8.16250038,   23.6056004,   1.02499998
  14010,   8.16250038,   23.2819004,    2.0250001
  14011,   8.16250038,   23.2819004,   1.52499998
  14012,   8.16250038,   23.2819004,   1.02499998
  14013,        7.375,   23.0200005, 0.0500000007
  14014,        7.625,   23.0200005, 0.0500000007
  14015,         7.75,   23.0200005, 0.0500000007
  14016,        7.875,   23.0200005, 0.0500000007
  14017,   8.16250038,   23.0200005, 0.0500000007
  14018,   8.16250038,   23.0200005,    2.0250001
  14019,   8.16250038,   23.0200005,   1.52499998
  14020,   8.16250038,   23.0200005,   1.02499998
  14021,   8.16250038,   23.0200005,  0.537500024
  14022,        7.375,   22.4025002, 0.0500000007
  14023,        7.625,   22.4025002, 0.0500000007
  14024,         7.75,   22.4025002, 0.0500000007
  14025,        7.875,   22.4025002, 0.0500000007
  14026,   8.16250038,   22.4025002, 0.0500000007
  14027,   8.16250038,   22.4025002,    2.0250001
  14028,   8.16250038,   22.4025002,  0.537500024
  14029,   8.16250038,   22.4025002,   1.52499998
  14030,   8.16250038,   22.4025002,   1.02499998
  14031,        7.375,   21.7849998, 0.0500000007
  14032,        7.625,   21.7849998, 0.0500000007
  14033,         7.75,   21.7849998, 0.0500000007
  14034,        7.875,   21.7849998, 0.0500000007
  14035,   8.16250038,   21.7849998, 0.0500000007
  14036,   8.16250038,   21.7849998,    2.0250001
  14037,   8.16250038,   21.7849998,  0.537500024
  14038,   8.16250038,   21.7849998,   1.52499998
  14039,   8.16250038,   21.7849998,   1.02499998
  14040,        7.375,   21.1674995, 0.0500000007
  14041,        7.375,   20.5499001, 0.0500000007
  14042,        7.375,   19.9325008, 0.0500000007
  14043,        7.375,   19.3150005, 0.0500000007
  14044,        7.375,   18.6975002, 0.0500000007
  14045,        7.375,   18.0799999, 0.0500000007
  14046,        7.625,   21.1674995, 0.0500000007
  14047,         7.75,   21.1674995, 0.0500000007
  14048,        7.875,   21.1674995, 0.0500000007
  14049,   8.16250038,   21.1674995, 0.0500000007
  14050,   8.16250038,   21.1674995,    2.0250001
  14051,   8.16250038,   21.1674995,  0.537500024
  14052,   8.16250038,   21.1674995,   1.52499998
  14053,   8.16250038,   21.1674995,   1.02499998
  14054,        7.625,   20.5499001, 0.0500000007
  14055,        7.625,   19.9325008, 0.0500000007
  14056,        7.625,   19.3150005, 0.0500000007
  14057,        7.625,   18.6975002, 0.0500000007
  14058,        7.625,   18.0799999, 0.0500000007
  14059,         7.75,   20.5499001, 0.0500000007
  14060,        7.875,   20.5499001, 0.0500000007
  14061,   8.16250038,   20.5499001, 0.0500000007
  14062,   8.16250038,   20.5499001,    2.0250001
  14063,   8.16250038,   20.5499001,  0.537500024
  14064,   8.16250038,   20.5499001,   1.52499998
  14065,   8.16250038,   20.5499001,   1.02499998
  14066,         7.75,   19.9325008, 0.0500000007
  14067,         7.75,   19.3150005, 0.0500000007
  14068,         7.75,   18.6975002, 0.0500000007
  14069,         7.75,   18.0799999, 0.0500000007
  14070,        7.875,   19.9325008, 0.0500000007
  14071,   8.16250038,   19.9325008, 0.0500000007
  14072,   8.16250038,   19.9325008,    2.0250001
  14073,   8.16250038,   19.9325008,  0.537500024
  14074,   8.16250038,   19.9325008,   1.52499998
  14075,   8.16250038,   19.9325008,   1.02499998
  14076,        7.875,   19.3150005, 0.0500000007
  14077,        7.875,   18.6975002, 0.0500000007
  14078,        7.875,   18.0799999, 0.0500000007
  14079,   8.16250038,   19.3150005, 0.0500000007
  14080,   8.16250038,   19.3150005,    2.0250001
  14081,   8.16250038,   19.3150005,  0.537500024
  14082,   8.16250038,   19.3150005,   1.52499998
  14083,   8.16250038,   19.3150005,   1.02499998
  14084,   8.16250038,   18.6975002, 0.0500000007
  14085,   8.16250038,   18.0799999, 0.0500000007
  14086,   8.16250038,   18.6975002,    2.0250001
  14087,   8.16250038,   18.6975002,  0.537500024
  14088,   8.16250038,   18.6975002,   1.52499998
  14089,   8.16250038,   18.6975002,   1.02499998
  14090,   8.16250038,   18.0799999,  0.537500024
  14091,   8.16250038,   18.0799999,    2.0250001
  14092,   8.16250038,   18.0799999,   1.52499998
  14093,   8.16250038,   18.0799999,   1.02499998
  14094,   8.16250038,      17.8181,    2.0250001
  14095,   8.16250038,      17.8181,   1.52499998
  14096,   8.16250038,      17.8181,   1.02499998
  14097,   8.16250038,   17.4943008,    2.0250001
  14098,   8.16250038,   17.4943008,   1.52499998
  14099,   8.16250038,   17.4943008,   1.02499998
  14100,   8.16250038,   17.1706009,    2.0250001
  14101,   8.16250038,   17.1706009,   1.52499998
  14102,   8.16250038,   17.1706009,   1.02499998
  14103,   8.16250038,   16.4293003,    2.0250001
  14104,   8.16250038,   16.4293003,   1.52499998
  14105,   8.16250038,   16.4293003,   1.02499998
  14106,   8.16250038,   16.1056004,    2.0250001
  14107,   8.16250038,   16.1056004,   1.52499998
  14108,   8.16250038,   16.1056004,   1.02499998
  14109,   8.16250038,   15.7819004,    2.0250001
  14110,   8.16250038,   15.7819004,   1.52499998
  14111,   8.16250038,   15.7819004,   1.02499998
  14112,        7.375,   15.5200005, 0.0500000007
  14113,        7.625,   15.5200005, 0.0500000007
  14114,         7.75,   15.5200005, 0.0500000007
  14115,        7.875,   15.5200005, 0.0500000007
  14116,   8.16250038,   15.5200005, 0.0500000007
  14117,   8.16250038,   15.5200005,    2.0250001
  14118,   8.16250038,   15.5200005,   1.52499998
  14119,   8.16250038,   15.5200005,   1.02499998
  14120,   8.16250038,   15.5200005,  0.537500024
  14121,        7.375,   14.9025002, 0.0500000007
  14122,        7.625,   14.9025002, 0.0500000007
  14123,         7.75,   14.9025002, 0.0500000007
  14124,        7.875,   14.9025002, 0.0500000007
  14125,   8.16250038,   14.9025002, 0.0500000007
  14126,   8.16250038,   14.9025002,    2.0250001
  14127,   8.16250038,   14.9025002,  0.537500024
  14128,   8.16250038,   14.9025002,   1.52499998
  14129,   8.16250038,   14.9025002,   1.02499998
  14130,        7.375,   14.2849998, 0.0500000007
  14131,        7.625,   14.2849998, 0.0500000007
  14132,         7.75,   14.2849998, 0.0500000007
  14133,        7.875,   14.2849998, 0.0500000007
  14134,   8.16250038,   14.2849998, 0.0500000007
  14135,   8.16250038,   14.2849998,    2.0250001
  14136,   8.16250038,   14.2849998,  0.537500024
  14137,   8.16250038,   14.2849998,   1.52499998
  14138,   8.16250038,   14.2849998,   1.02499998
  14139,        7.375,   13.6674995, 0.0500000007
  14140,        7.375,   13.0500002, 0.0500000007
  14141,        7.375,   12.4324999, 0.0500000007
  14142,        7.375,   11.8149996, 0.0500000007
  14143,        7.375,   11.1975002, 0.0500000007
  14144,        7.375,   10.5799999, 0.0500000007
  14145,        7.625,   13.6674995, 0.0500000007
  14146,         7.75,   13.6674995, 0.0500000007
  14147,        7.875,   13.6674995, 0.0500000007
  14148,   8.16250038,   13.6674995, 0.0500000007
  14149,   8.16250038,   13.6674995,    2.0250001
  14150,   8.16250038,   13.6674995,  0.537500024
  14151,   8.16250038,   13.6674995,   1.52499998
  14152,   8.16250038,   13.6674995,   1.02499998
  14153,        7.625,   13.0500002, 0.0500000007
  14154,        7.625,   12.4324999, 0.0500000007
  14155,        7.625,   11.8149996, 0.0500000007
  14156,        7.625,   11.1975002, 0.0500000007
  14157,        7.625,   10.5799999, 0.0500000007
  14158,         7.75,   13.0500002, 0.0500000007
  14159,        7.875,   13.0500002, 0.0500000007
  14160,   8.16250038,   13.0500002, 0.0500000007
  14161,   8.16250038,   13.0500002,    2.0250001
  14162,   8.16250038,   13.0500002,  0.537500024
  14163,   8.16250038,   13.0500002,   1.52499998
  14164,   8.16250038,   13.0500002,   1.02499998
  14165,         7.75,   12.4324999, 0.0500000007
  14166,         7.75,   11.8149996, 0.0500000007
  14167,         7.75,   11.1975002, 0.0500000007
  14168,         7.75,   10.5799999, 0.0500000007
  14169,        7.875,   12.4324999, 0.0500000007
  14170,   8.16250038,   12.4324999, 0.0500000007
  14171,   8.16250038,   12.4324999,    2.0250001
  14172,   8.16250038,   12.4324999,  0.537500024
  14173,   8.16250038,   12.4324999,   1.52499998
  14174,   8.16250038,   12.4324999,   1.02499998
  14175,        7.875,   11.8149996, 0.0500000007
  14176,        7.875,   11.1975002, 0.0500000007
  14177,        7.875,   10.5799999, 0.0500000007
  14178,   8.16250038,   11.8149996, 0.0500000007
  14179,   8.16250038,   11.8149996,    2.0250001
  14180,   8.16250038,   11.8149996,  0.537500024
  14181,   8.16250038,   11.8149996,   1.52499998
  14182,   8.16250038,   11.8149996,   1.02499998
  14183,   8.16250038,   11.1975002, 0.0500000007
  14184,   8.16250038,   10.5799999, 0.0500000007
  14185,   8.16250038,   11.1975002,    2.0250001
  14186,   8.16250038,   11.1975002,  0.537500024
  14187,   8.16250038,   11.1975002,   1.52499998
  14188,   8.16250038,   11.1975002,   1.02499998
  14189,   8.16250038,   10.5799999,  0.537500024
  14190,   8.16250038,   10.5799999,    2.0250001
  14191,   8.16250038,   10.5799999,   1.52499998
  14192,   8.16250038,   10.5799999,   1.02499998
  14193,   8.16250038,      10.3181,    2.0250001
  14194,   8.16250038,      10.3181,   1.52499998
  14195,   8.16250038,      10.3181,   1.02499998
  14196,   8.16250038,   9.99435043,    2.0250001
  14197,   8.16250038,   9.99435043,   1.52499998
  14198,   8.16250038,   9.99435043,   1.02499998
  14199,   8.16250038,   9.67059994,    2.0250001
  14200,   8.16250038,   9.67059994,   1.52499998
  14201,   8.16250038,   9.67059994,   1.02499998
  14202,   8.16250038,   8.92938995,    2.0250001
  14203,   8.16250038,   8.92938995,   1.52499998
  14204,   8.16250038,   8.92938995,   1.02499998
  14205,   8.16250038,   8.60564995,    2.0250001
  14206,   8.16250038,   8.60564995,   1.52499998
  14207,   8.16250038,   8.60564995,   1.02499998
  14208,   8.16250038,   8.28190041,    2.0250001
  14209,   8.16250038,   8.28190041,   1.52499998
  14210,   8.16250038,   8.28190041,   1.02499998
  14212,   8.16250038,   8.02000046,    2.0250001
  14213,   8.16250038,   8.02000046,   1.52499998
  14214,   8.16250038,   8.02000046,   1.02499998
*Element, type=S4R
32529, 13880, 13879, 13890, 13891
32530, 13879, 13878, 13889, 13890
32531, 13878, 13877, 13888, 13889
32532, 13877, 13876, 13887, 13888
32533, 13876, 13875, 13886, 13887
32534, 13875, 13874, 13885, 13886
32535, 13874, 13873, 13884, 13885
32536, 13873, 13872, 13883, 13884
32537, 13872, 13871, 13882, 13883
32538, 13871, 13870, 13881, 13882
32539, 13896, 13897, 13894, 13893
32540, 13897, 13898, 13895, 13894
32541, 13858, 13857, 13868, 13869
32542, 13869, 13868, 13879, 13880
32543, 13857, 13856, 13867, 13868
32544, 13868, 13867, 13878, 13879
32545, 13856, 13855, 13866, 13867
32546, 13855, 13854, 13865, 13866
32547, 13867, 13866, 13877, 13878
32548, 13866, 13865, 13876, 13877
32549, 13854, 13853, 13864, 13865
32550, 13853, 13852, 13863, 13864
32551, 13865, 13864, 13875, 13876
32552, 13864, 13863, 13874, 13875
32553, 13852, 13851, 13862, 13863
32554, 13863, 13862, 13873, 13874
32555, 13851, 13850, 13861, 13862
32556, 13850, 13849, 13860, 13861
32557, 13862, 13861, 13872, 13873
32558, 13861, 13860, 13871, 13872
32559, 13849, 13848, 13859, 13860
32560, 13860, 13859, 13870, 13871
32561, 13905, 13906, 13903, 13902
32562, 13906, 13907, 13904, 13903
32563, 13902, 13903, 13900, 13899
32564, 13903, 13904, 13901, 13900
32565, 13899, 13900, 13897, 13896
32566, 13900, 13901, 13898, 13897
32567, 13847, 13846, 13857, 13858
32568, 13846, 13845, 13856, 13857
32569, 13845, 13844, 13855, 13856
32570, 13844, 13843, 13854, 13855
32571, 13843, 13842, 13853, 13854
32572, 13842, 13841, 13852, 13853
32573, 13841, 13840, 13851, 13852
32574, 13840, 13839, 13850, 13851
32575, 13839, 13838, 13849, 13850
32576, 13838, 13837, 13848, 13849
32577, 13825, 13824, 13835, 13836
32578, 13836, 13835, 13846, 13847
32579, 13824, 13823, 13834, 13835
32580, 13835, 13834, 13845, 13846
32581, 13823, 13822, 13833, 13834
32582, 13822, 13821, 13832, 13833
32583, 13834, 13833, 13844, 13845
32584, 13833, 13832, 13843, 13844
32585, 13821, 13820, 13831, 13832
32586, 13820, 13819, 13830, 13831
32587, 13832, 13831, 13842, 13843
32588, 13831, 13830, 13841, 13842
32589, 13819, 13818, 13829, 13830
32590, 13830, 13829, 13840, 13841
32591, 13818, 13817, 13828, 13829
32592, 13817, 13816, 13827, 13828
32593, 13829, 13828, 13839, 13840
32594, 13828, 13827, 13838, 13839
32595, 13816, 13815, 13826, 13827
32596, 13827, 13826, 13837, 13838
32597, 13911, 13912, 13909, 13908
32598, 13912, 13913, 13910, 13909
32599, 13908, 13909, 13906, 13905
32600, 13909, 13910, 13907, 13906
32601, 13814, 13813, 13824, 13825
32602, 13813, 13812, 13823, 13824
32603, 13812, 13811, 13822, 13823
32604, 13811, 13810, 13821, 13822
32605, 13810, 13809, 13820, 13821
32606, 13809, 13808, 13819, 13820
32607, 13808, 13807, 13818, 13819
32608, 13807, 13806, 13817, 13818
32609, 13806, 13805, 13816, 13817
32610, 13805, 13804, 13815, 13816
32611, 13919, 13920, 13912, 13911
32612, 13920, 13921, 13913, 13912
32613, 13726, 13725, 13736, 13737
32614, 13737, 13736, 13747, 13748
32615, 13748, 13747, 13758, 13759
32616, 13759, 13758, 13769, 13770
32617, 13770, 13769, 13780, 13781
32618, 13781, 13780, 13791, 13792
32619, 13792, 13791, 13802, 13803
32620, 13803, 13802, 13813, 13814
32621, 13725, 13724, 13735, 13736
32622, 13736, 13735, 13746, 13747
32623, 13747, 13746, 13757, 13758
32624, 13758, 13757, 13768, 13769
32625, 13769, 13768, 13779, 13780
32626, 13780, 13779, 13790, 13791
32627, 13791, 13790, 13801, 13802
32628, 13802, 13801, 13812, 13813
32629, 13724, 13723, 13734, 13735
32630, 13723, 13722, 13733, 13734
32631, 13735, 13734, 13745, 13746
32632, 13734, 13733, 13744, 13745
32633, 13746, 13745, 13756, 13757
32634, 13745, 13744, 13755, 13756
32635, 13757, 13756, 13767, 13768
32636, 13756, 13755, 13766, 13767
32637, 13768, 13767, 13778, 13779
32638, 13767, 13766, 13777, 13778
32639, 13779, 13778, 13789, 13790
32640, 13778, 13777, 13788, 13789
32641, 13790, 13789, 13800, 13801
32642, 13789, 13788, 13799, 13800
32643, 13801, 13800, 13811, 13812
32644, 13800, 13799, 13810, 13811
32645, 13722, 13721, 13732, 13733
32646, 13721, 13720, 13731, 13732
32647, 13733, 13732, 13743, 13744
32648, 13732, 13731, 13742, 13743
32649, 13744, 13743, 13754, 13755
32650, 13743, 13742, 13753, 13754
32651, 13755, 13754, 13765, 13766
32652, 13754, 13753, 13764, 13765
32653, 13766, 13765, 13776, 13777
32654, 13765, 13764, 13775, 13776
32655, 13777, 13776, 13787, 13788
32656, 13776, 13775, 13786, 13787
32657, 13788, 13787, 13798, 13799
32658, 13787, 13786, 13797, 13798
32659, 13799, 13798, 13809, 13810
32660, 13798, 13797, 13808, 13809
32661, 13720, 13719, 13730, 13731
32662, 13731, 13730, 13741, 13742
32663, 13742, 13741, 13752, 13753
32664, 13753, 13752, 13763, 13764
32665, 13764, 13763, 13774, 13775
32666, 13775, 13774, 13785, 13786
32667, 13786, 13785, 13796, 13797
32668, 13797, 13796, 13807, 13808
32669, 13719, 13718, 13729, 13730
32670, 13718, 13717, 13728, 13729
32671, 13730, 13729, 13740, 13741
32672, 13729, 13728, 13739, 13740
32673, 13741, 13740, 13751, 13752
32674, 13740, 13739, 13750, 13751
32675, 13752, 13751, 13762, 13763
32676, 13751, 13750, 13761, 13762
32677, 13763, 13762, 13773, 13774
32678, 13762, 13761, 13772, 13773
32679, 13774, 13773, 13784, 13785
32680, 13773, 13772, 13783, 13784
32681, 13785, 13784, 13795, 13796
32682, 13784, 13783, 13794, 13795
32683, 13796, 13795, 13806, 13807
32684, 13795, 13794, 13805, 13806
32685, 13717, 13716, 13727, 13728
32686, 13728, 13727, 13738, 13739
32687, 13739, 13738, 13749, 13750
32688, 13750, 13749, 13760, 13761
32689, 13761, 13760, 13771, 13772
32690, 13772, 13771, 13782, 13783
32691, 13783, 13782, 13793, 13794
32692, 13794, 13793, 13804, 13805
32693, 13992, 13993, 13989, 13987
32694, 13993, 13994, 13990, 13989
32695, 13987, 13989, 13983, 13981
32696, 13989, 13990, 13984, 13983
32697, 13981, 13983, 13975, 13973
32698, 13983, 13984, 13976, 13975
32699, 13973, 13975, 13965, 13963
32700, 13975, 13976, 13966, 13965
32701, 13963, 13965, 13953, 13951
32702, 13965, 13966, 13954, 13953
32703, 13951, 13953, 13939, 13937
32704, 13953, 13954, 13940, 13939
32705, 13937, 13939, 13930, 13928
32706, 13939, 13940, 13931, 13930
32707, 13928, 13930, 13920, 13919
32708, 13930, 13931, 13921, 13920
32709, 13994, 13991, 13988, 13990
32710, 13991, 13986, 13985, 13988
32711, 13990, 13988, 13982, 13984
32712, 13988, 13985, 13980, 13982
32713, 13984, 13982, 13974, 13976
32714, 13982, 13980, 13972, 13974
32715, 13976, 13974, 13964, 13966
32716, 13974, 13972, 13962, 13964
32717, 13966, 13964, 13952, 13954
32718, 13964, 13962, 13950, 13952
32719, 13954, 13952, 13938, 13940
32720, 13952, 13950, 13936, 13938
32721, 13940, 13938, 13929, 13931
32722, 13938, 13936, 13927, 13929
32723, 13931, 13929, 13922, 13921
32724, 13929, 13927, 13918, 13922
32725, 13986, 13979, 13978, 13985
32726, 13985, 13978, 13977, 13980
32727, 13980, 13977, 13971, 13972
32728, 13972, 13971, 13961, 13962
32729, 13962, 13961, 13949, 13950
32730, 13950, 13949, 13935, 13936
32731, 13936, 13935, 13926, 13927
32732, 13927, 13926, 13917, 13918
32733, 13979, 13970, 13969, 13978
32734, 13978, 13969, 13968, 13977
32735, 13977, 13968, 13967, 13971
32736, 13971, 13967, 13960, 13961
32737, 13961, 13960, 13948, 13949
32738, 13949, 13948, 13934, 13935
32739, 13935, 13934, 13925, 13926
32740, 13926, 13925, 13916, 13917
32741, 13970, 13959, 13958, 13969
32742, 13969, 13958, 13957, 13968
32743, 13968, 13957, 13956, 13967
32744, 13967, 13956, 13955, 13960
32745, 13960, 13955, 13947, 13948
32746, 13948, 13947, 13933, 13934
32747, 13934, 13933, 13924, 13925
32748, 13925, 13924, 13915, 13916
32749, 13959, 13946, 13945, 13958
32750, 13958, 13945, 13944, 13957
32751, 13957, 13944, 13943, 13956
32752, 13956, 13943, 13942, 13955
32753, 13955, 13942, 13941, 13947
32754, 13947, 13941, 13932, 13933
32755, 13933, 13932, 13923, 13924
32756, 13924, 13923, 13914, 13915
32757, 13715, 13714, 13725, 13726
32758, 13714, 13713, 13724, 13725
32759, 13713, 13712, 13723, 13724
32760, 13712, 13711, 13722, 13723
32761, 13711, 13710, 13721, 13722
32762, 13710, 13709, 13720, 13721
32763, 13709, 13708, 13719, 13720
32764, 13708, 13707, 13718, 13719
32765, 13707, 13706, 13717, 13718
32766, 13706, 13705, 13716, 13717
32767, 13995, 13996, 13993, 13992
32768, 13996, 13997, 13994, 13993
32769, 13693, 13692, 13703, 13704
32770, 13704, 13703, 13714, 13715
32771, 13692, 13691, 13702, 13703
32772, 13703, 13702, 13713, 13714
32773, 13691, 13690, 13701, 13702
32774, 13690, 13689, 13700, 13701
32775, 13702, 13701, 13712, 13713
32776, 13701, 13700, 13711, 13712
32777, 13689, 13688, 13699, 13700
32778, 13688, 13687, 13698, 13699
32779, 13700, 13699, 13710, 13711
32780, 13699, 13698, 13709, 13710
32781, 13687, 13686, 13697, 13698
32782, 13698, 13697, 13708, 13709
32783, 13686, 13685, 13696, 13697
32784, 13685, 13684, 13695, 13696
32785, 13697, 13696, 13707, 13708
32786, 13696, 13695, 13706, 13707
32787, 13684, 13683, 13694, 13695
32788, 13695, 13694, 13705, 13706
32789, 14004, 14005, 14002, 14001
32790, 14005, 14006, 14003, 14002
32791, 14001, 14002, 13999, 13998
32792, 14002, 14003, 14000, 13999
32793, 13998, 13999, 13996, 13995
32794, 13999, 14000, 13997, 13996
32795, 13682, 13681, 13692, 13693
32796, 13681, 13680, 13691, 13692
32797, 13680, 13679, 13690, 13691
32798, 13679, 13678, 13689, 13690
32799, 13678, 13677, 13688, 13689
32800, 13677, 13676, 13687, 13688
32801, 13676, 13675, 13686, 13687
32802, 13675, 13674, 13685, 13686
32803, 13674, 13673, 13684, 13685
32804, 13673, 13672, 13683, 13684
32805, 13660, 13659, 13670, 13671
32806, 13671, 13670, 13681, 13682
32807, 13659, 13658, 13669, 13670
32808, 13670, 13669, 13680, 13681
32809, 13658, 13657, 13668, 13669
32810, 13657, 13656, 13667, 13668
32811, 13669, 13668, 13679, 13680
32812, 13668, 13667, 13678, 13679
32813, 13656, 13655, 13666, 13667
32814, 13655, 13654, 13665, 13666
32815, 13667, 13666, 13677, 13678
32816, 13666, 13665, 13676, 13677
32817, 13654, 13653, 13664, 13665
32818, 13665, 13664, 13675, 13676
32819, 13653, 13652, 13663, 13664
32820, 13652, 13651, 13662, 13663
32821, 13664, 13663, 13674, 13675
32822, 13663, 13662, 13673, 13674
32823, 13651, 13650, 13661, 13662
32824, 13662, 13661, 13672, 13673
32825, 14010, 14011, 14008, 14007
32826, 14011, 14012, 14009, 14008
32827, 14007, 14008, 14005, 14004
32828, 14008, 14009, 14006, 14005
32829, 13649, 13648, 13659, 13660
32830, 13648, 13647, 13658, 13659
32831, 13647, 13646, 13657, 13658
32832, 13646, 13645, 13656, 13657
32833, 13645, 13644, 13655, 13656
32834, 13644, 13643, 13654, 13655
32835, 13643, 13642, 13653, 13654
32836, 13642, 13641, 13652, 13653
32837, 13641, 13640, 13651, 13652
32838, 13640, 13639, 13650, 13651
32839, 14018, 14019, 14011, 14010
32840, 14019, 14020, 14012, 14011
32841, 13561, 13560, 13571, 13572
32842, 13572, 13571, 13582, 13583
32843, 13583, 13582, 13593, 13594
32844, 13594, 13593, 13604, 13605
32845, 13605, 13604, 13615, 13616
32846, 13616, 13615, 13626, 13627
32847, 13627, 13626, 13637, 13638
32848, 13638, 13637, 13648, 13649
32849, 13560, 13559, 13570, 13571
32850, 13571, 13570, 13581, 13582
32851, 13582, 13581, 13592, 13593
32852, 13593, 13592, 13603, 13604
32853, 13604, 13603, 13614, 13615
32854, 13615, 13614, 13625, 13626
32855, 13626, 13625, 13636, 13637
32856, 13637, 13636, 13647, 13648
32857, 13559, 13558, 13569, 13570
32858, 13558, 13557, 13568, 13569
32859, 13570, 13569, 13580, 13581
32860, 13569, 13568, 13579, 13580
32861, 13581, 13580, 13591, 13592
32862, 13580, 13579, 13590, 13591
32863, 13592, 13591, 13602, 13603
32864, 13591, 13590, 13601, 13602
32865, 13603, 13602, 13613, 13614
32866, 13602, 13601, 13612, 13613
32867, 13614, 13613, 13624, 13625
32868, 13613, 13612, 13623, 13624
32869, 13625, 13624, 13635, 13636
32870, 13624, 13623, 13634, 13635
32871, 13636, 13635, 13646, 13647
32872, 13635, 13634, 13645, 13646
32873, 13557, 13556, 13567, 13568
32874, 13556, 13555, 13566, 13567
32875, 13568, 13567, 13578, 13579
32876, 13567, 13566, 13577, 13578
32877, 13579, 13578, 13589, 13590
32878, 13578, 13577, 13588, 13589
32879, 13590, 13589, 13600, 13601
32880, 13589, 13588, 13599, 13600
32881, 13601, 13600, 13611, 13612
32882, 13600, 13599, 13610, 13611
32883, 13612, 13611, 13622, 13623
32884, 13611, 13610, 13621, 13622
32885, 13623, 13622, 13633, 13634
32886, 13622, 13621, 13632, 13633
32887, 13634, 13633, 13644, 13645
32888, 13633, 13632, 13643, 13644
32889, 13555, 13554, 13565, 13566
32890, 13566, 13565, 13576, 13577
32891, 13577, 13576, 13587, 13588
32892, 13588, 13587, 13598, 13599
32893, 13599, 13598, 13609, 13610
32894, 13610, 13609, 13620, 13621
32895, 13621, 13620, 13631, 13632
32896, 13632, 13631, 13642, 13643
32897, 13554, 13553, 13564, 13565
32898, 13553, 13552, 13563, 13564
32899, 13565, 13564, 13575, 13576
32900, 13564, 13563, 13574, 13575
32901, 13576, 13575, 13586, 13587
32902, 13575, 13574, 13585, 13586
32903, 13587, 13586, 13597, 13598
32904, 13586, 13585, 13596, 13597
32905, 13598, 13597, 13608, 13609
32906, 13597, 13596, 13607, 13608
32907, 13609, 13608, 13619, 13620
32908, 13608, 13607, 13618, 13619
32909, 13620, 13619, 13630, 13631
32910, 13619, 13618, 13629, 13630
32911, 13631, 13630, 13641, 13642
32912, 13630, 13629, 13640, 13641
32913, 13552, 13551, 13562, 13563
32914, 13563, 13562, 13573, 13574
32915, 13574, 13573, 13584, 13585
32916, 13585, 13584, 13595, 13596
32917, 13596, 13595, 13606, 13607
32918, 13607, 13606, 13617, 13618
32919, 13618, 13617, 13628, 13629
32920, 13629, 13628, 13639, 13640
32921, 14091, 14092, 14088, 14086
32922, 14092, 14093, 14089, 14088
32923, 14086, 14088, 14082, 14080
32924, 14088, 14089, 14083, 14082
32925, 14080, 14082, 14074, 14072
32926, 14082, 14083, 14075, 14074
32927, 14072, 14074, 14064, 14062
32928, 14074, 14075, 14065, 14064
32929, 14062, 14064, 14052, 14050
32930, 14064, 14065, 14053, 14052
32931, 14050, 14052, 14038, 14036
32932, 14052, 14053, 14039, 14038
32933, 14036, 14038, 14029, 14027
32934, 14038, 14039, 14030, 14029
32935, 14027, 14029, 14019, 14018
32936, 14029, 14030, 14020, 14019
32937, 14093, 14090, 14087, 14089
32938, 14090, 14085, 14084, 14087
32939, 14089, 14087, 14081, 14083
32940, 14087, 14084, 14079, 14081
32941, 14083, 14081, 14073, 14075
32942, 14081, 14079, 14071, 14073
32943, 14075, 14073, 14063, 14065
32944, 14073, 14071, 14061, 14063
32945, 14065, 14063, 14051, 14053
32946, 14063, 14061, 14049, 14051
32947, 14053, 14051, 14037, 14039
32948, 14051, 14049, 14035, 14037
32949, 14039, 14037, 14028, 14030
32950, 14037, 14035, 14026, 14028
32951, 14030, 14028, 14021, 14020
32952, 14028, 14026, 14017, 14021
32953, 14085, 14078, 14077, 14084
32954, 14084, 14077, 14076, 14079
32955, 14079, 14076, 14070, 14071
32956, 14071, 14070, 14060, 14061
32957, 14061, 14060, 14048, 14049
32958, 14049, 14048, 14034, 14035
32959, 14035, 14034, 14025, 14026
32960, 14026, 14025, 14016, 14017
32961, 14078, 14069, 14068, 14077
32962, 14077, 14068, 14067, 14076
32963, 14076, 14067, 14066, 14070
32964, 14070, 14066, 14059, 14060
32965, 14060, 14059, 14047, 14048
32966, 14048, 14047, 14033, 14034
32967, 14034, 14033, 14024, 14025
32968, 14025, 14024, 14015, 14016
32969, 14069, 14058, 14057, 14068
32970, 14068, 14057, 14056, 14067
32971, 14067, 14056, 14055, 14066
32972, 14066, 14055, 14054, 14059
32973, 14059, 14054, 14046, 14047
32974, 14047, 14046, 14032, 14033
32975, 14033, 14032, 14023, 14024
32976, 14024, 14023, 14014, 14015
32977, 14058, 14045, 14044, 14057
32978, 14057, 14044, 14043, 14056
32979, 14056, 14043, 14042, 14055
32980, 14055, 14042, 14041, 14054
32981, 14054, 14041, 14040, 14046
32982, 14046, 14040, 14031, 14032
32983, 14032, 14031, 14022, 14023
32984, 14023, 14022, 14013, 14014
32985, 13550, 13549, 13560, 13561
32986, 13549, 13548, 13559, 13560
32987, 13548, 13547, 13558, 13559
32988, 13547, 13546, 13557, 13558
32989, 13546, 13545, 13556, 13557
32990, 13545, 13544, 13555, 13556
32991, 13544, 13543, 13554, 13555
32992, 13543, 13542, 13553, 13554
32993, 13542, 13541, 13552, 13553
32994, 13541, 13540, 13551, 13552
32995, 14094, 14095, 14092, 14091
32996, 14095, 14096, 14093, 14092
32997, 13528, 13527, 13538, 13539
32998, 13539, 13538, 13549, 13550
32999, 13527, 13526, 13537, 13538
33000, 13538, 13537, 13548, 13549
33001, 13526, 13525, 13536, 13537
33002, 13525, 13524, 13535, 13536
33003, 13537, 13536, 13547, 13548
33004, 13536, 13535, 13546, 13547
33005, 13524, 13523, 13534, 13535
33006, 13523, 13522, 13533, 13534
33007, 13535, 13534, 13545, 13546
33008, 13534, 13533, 13544, 13545
33009, 13522, 13521, 13532, 13533
33010, 13533, 13532, 13543, 13544
33011, 13521, 13520, 13531, 13532
33012, 13520, 13519, 13530, 13531
33013, 13532, 13531, 13542, 13543
33014, 13531, 13530, 13541, 13542
33015, 13519, 13518, 13529, 13530
33016, 13530, 13529, 13540, 13541
33017, 14103, 14104, 14101, 14100
33018, 14104, 14105, 14102, 14101
33019, 14100, 14101, 14098, 14097
33020, 14101, 14102, 14099, 14098
33021, 14097, 14098, 14095, 14094
33022, 14098, 14099, 14096, 14095
33023, 13517, 13516, 13527, 13528
33024, 13516, 13515, 13526, 13527
33025, 13515, 13514, 13525, 13526
33026, 13514, 13513, 13524, 13525
33027, 13513, 13512, 13523, 13524
33028, 13512, 13511, 13522, 13523
33029, 13511, 13510, 13521, 13522
33030, 13510, 13509, 13520, 13521
33031, 13509, 13508, 13519, 13520
33032, 13508, 13507, 13518, 13519
33033, 13495, 13494, 13505, 13506
33034, 13506, 13505, 13516, 13517
33035, 13494, 13493, 13504, 13505
33036, 13505, 13504, 13515, 13516
33037, 13493, 13492, 13503, 13504
33038, 13492, 13491, 13502, 13503
33039, 13504, 13503, 13514, 13515
33040, 13503, 13502, 13513, 13514
33041, 13491, 13490, 13501, 13502
33042, 13490, 13489, 13500, 13501
33043, 13502, 13501, 13512, 13513
33044, 13501, 13500, 13511, 13512
33045, 13489, 13488, 13499, 13500
33046, 13500, 13499, 13510, 13511
33047, 13488, 13487, 13498, 13499
33048, 13487, 13486, 13497, 13498
33049, 13499, 13498, 13509, 13510
33050, 13498, 13497, 13508, 13509
33051, 13486, 13485, 13496, 13497
33052, 13497, 13496, 13507, 13508
33053, 14109, 14110, 14107, 14106
33054, 14110, 14111, 14108, 14107
33055, 14106, 14107, 14104, 14103
33056, 14107, 14108, 14105, 14104
33057, 13484, 13483, 13494, 13495
33058, 13483, 13482, 13493, 13494
33059, 13482, 13481, 13492, 13493
33060, 13481, 13480, 13491, 13492
33061, 13480, 13479, 13490, 13491
33062, 13479, 13478, 13489, 13490
33063, 13478, 13477, 13488, 13489
33064, 13477, 13476, 13487, 13488
33065, 13476, 13475, 13486, 13487
33066, 13475, 13474, 13485, 13486
33067, 14117, 14118, 14110, 14109
33068, 14118, 14119, 14111, 14110
33069, 13396, 13395, 13406, 13407
33070, 13407, 13406, 13417, 13418
33071, 13418, 13417, 13428, 13429
33072, 13429, 13428, 13439, 13440
33073, 13440, 13439, 13450, 13451
33074, 13451, 13450, 13461, 13462
33075, 13462, 13461, 13472, 13473
33076, 13473, 13472, 13483, 13484
33077, 13395, 13394, 13405, 13406
33078, 13406, 13405, 13416, 13417
33079, 13417, 13416, 13427, 13428
33080, 13428, 13427, 13438, 13439
33081, 13439, 13438, 13449, 13450
33082, 13450, 13449, 13460, 13461
33083, 13461, 13460, 13471, 13472
33084, 13472, 13471, 13482, 13483
33085, 13394, 13393, 13404, 13405
33086, 13393, 13392, 13403, 13404
33087, 13405, 13404, 13415, 13416
33088, 13404, 13403, 13414, 13415
33089, 13416, 13415, 13426, 13427
33090, 13415, 13414, 13425, 13426
33091, 13427, 13426, 13437, 13438
33092, 13426, 13425, 13436, 13437
33093, 13438, 13437, 13448, 13449
33094, 13437, 13436, 13447, 13448
33095, 13449, 13448, 13459, 13460
33096, 13448, 13447, 13458, 13459
33097, 13460, 13459, 13470, 13471
33098, 13459, 13458, 13469, 13470
33099, 13471, 13470, 13481, 13482
33100, 13470, 13469, 13480, 13481
33101, 13392, 13391, 13402, 13403
33102, 13391, 13390, 13401, 13402
33103, 13403, 13402, 13413, 13414
33104, 13402, 13401, 13412, 13413
33105, 13414, 13413, 13424, 13425
33106, 13413, 13412, 13423, 13424
33107, 13425, 13424, 13435, 13436
33108, 13424, 13423, 13434, 13435
33109, 13436, 13435, 13446, 13447
33110, 13435, 13434, 13445, 13446
33111, 13447, 13446, 13457, 13458
33112, 13446, 13445, 13456, 13457
33113, 13458, 13457, 13468, 13469
33114, 13457, 13456, 13467, 13468
33115, 13469, 13468, 13479, 13480
33116, 13468, 13467, 13478, 13479
33117, 13390, 13389, 13400, 13401
33118, 13401, 13400, 13411, 13412
33119, 13412, 13411, 13422, 13423
33120, 13423, 13422, 13433, 13434
33121, 13434, 13433, 13444, 13445
33122, 13445, 13444, 13455, 13456
33123, 13456, 13455, 13466, 13467
33124, 13467, 13466, 13477, 13478
33125, 13389, 13388, 13399, 13400
33126, 13388, 13387, 13398, 13399
33127, 13400, 13399, 13410, 13411
33128, 13399, 13398, 13409, 13410
33129, 13411, 13410, 13421, 13422
33130, 13410, 13409, 13420, 13421
33131, 13422, 13421, 13432, 13433
33132, 13421, 13420, 13431, 13432
33133, 13433, 13432, 13443, 13444
33134, 13432, 13431, 13442, 13443
33135, 13444, 13443, 13454, 13455
33136, 13443, 13442, 13453, 13454
33137, 13455, 13454, 13465, 13466
33138, 13454, 13453, 13464, 13465
33139, 13466, 13465, 13476, 13477
33140, 13465, 13464, 13475, 13476
33141, 13387, 13386, 13397, 13398
33142, 13398, 13397, 13408, 13409
33143, 13409, 13408, 13419, 13420
33144, 13420, 13419, 13430, 13431
33145, 13431, 13430, 13441, 13442
33146, 13442, 13441, 13452, 13453
33147, 13453, 13452, 13463, 13464
33148, 13464, 13463, 13474, 13475
33149, 14190, 14191, 14187, 14185
33150, 14191, 14192, 14188, 14187
33151, 14185, 14187, 14181, 14179
33152, 14187, 14188, 14182, 14181
33153, 14179, 14181, 14173, 14171
33154, 14181, 14182, 14174, 14173
33155, 14171, 14173, 14163, 14161
33156, 14173, 14174, 14164, 14163
33157, 14161, 14163, 14151, 14149
33158, 14163, 14164, 14152, 14151
33159, 14149, 14151, 14137, 14135
33160, 14151, 14152, 14138, 14137
33161, 14135, 14137, 14128, 14126
33162, 14137, 14138, 14129, 14128
33163, 14126, 14128, 14118, 14117
33164, 14128, 14129, 14119, 14118
33165, 14192, 14189, 14186, 14188
33166, 14189, 14184, 14183, 14186
33167, 14188, 14186, 14180, 14182
33168, 14186, 14183, 14178, 14180
33169, 14182, 14180, 14172, 14174
33170, 14180, 14178, 14170, 14172
33171, 14174, 14172, 14162, 14164
33172, 14172, 14170, 14160, 14162
33173, 14164, 14162, 14150, 14152
33174, 14162, 14160, 14148, 14150
33175, 14152, 14150, 14136, 14138
33176, 14150, 14148, 14134, 14136
33177, 14138, 14136, 14127, 14129
33178, 14136, 14134, 14125, 14127
33179, 14129, 14127, 14120, 14119
33180, 14127, 14125, 14116, 14120
33181, 14184, 14177, 14176, 14183
33182, 14183, 14176, 14175, 14178
33183, 14178, 14175, 14169, 14170
33184, 14170, 14169, 14159, 14160
33185, 14160, 14159, 14147, 14148
33186, 14148, 14147, 14133, 14134
33187, 14134, 14133, 14124, 14125
33188, 14125, 14124, 14115, 14116
33189, 14177, 14168, 14167, 14176
33190, 14176, 14167, 14166, 14175
33191, 14175, 14166, 14165, 14169
33192, 14169, 14165, 14158, 14159
33193, 14159, 14158, 14146, 14147
33194, 14147, 14146, 14132, 14133
33195, 14133, 14132, 14123, 14124
33196, 14124, 14123, 14114, 14115
33197, 14168, 14157, 14156, 14167
33198, 14167, 14156, 14155, 14166
33199, 14166, 14155, 14154, 14165
33200, 14165, 14154, 14153, 14158
33201, 14158, 14153, 14145, 14146
33202, 14146, 14145, 14131, 14132
33203, 14132, 14131, 14122, 14123
33204, 14123, 14122, 14113, 14114
33205, 14157, 14144, 14143, 14156
33206, 14156, 14143, 14142, 14155
33207, 14155, 14142, 14141, 14154
33208, 14154, 14141, 14140, 14153
33209, 14153, 14140, 14139, 14145
33210, 14145, 14139, 14130, 14131
33211, 14131, 14130, 14121, 14122
33212, 14122, 14121, 14112, 14113
33213, 13385, 13384, 13395, 13396
33214, 13384, 13383, 13394, 13395
33215, 13383, 13382, 13393, 13394
33216, 13382, 13381, 13392, 13393
33217, 13381, 13380, 13391, 13392
33218, 13380, 13379, 13390, 13391
33219, 13379, 13378, 13389, 13390
33220, 13378, 13377, 13388, 13389
33221, 13377, 13376, 13387, 13388
33222, 13376, 13375, 13386, 13387
33223, 14193, 14194, 14191, 14190
33224, 14194, 14195, 14192, 14191
33225, 13363, 13362, 13373, 13374
33226, 13374, 13373, 13384, 13385
33227, 13362, 13361, 13372, 13373
33228, 13373, 13372, 13383, 13384
33229, 13361, 13360, 13371, 13372
33230, 13360, 13359, 13370, 13371
33231, 13372, 13371, 13382, 13383
33232, 13371, 13370, 13381, 13382
33233, 13359, 13358, 13369, 13370
33234, 13358, 13357, 13368, 13369
33235, 13370, 13369, 13380, 13381
33236, 13369, 13368, 13379, 13380
33237, 13357, 13356, 13367, 13368
33238, 13368, 13367, 13378, 13379
33239, 13356, 13355, 13366, 13367
33240, 13355, 13354, 13365, 13366
33241, 13367, 13366, 13377, 13378
33242, 13366, 13365, 13376, 13377
33243, 13354, 13353, 13364, 13365
33244, 13365, 13364, 13375, 13376
33245, 14202, 14203, 14200, 14199
33246, 14203, 14204, 14201, 14200
33247, 14199, 14200, 14197, 14196
33248, 14200, 14201, 14198, 14197
33249, 14196, 14197, 14194, 14193
33250, 14197, 14198, 14195, 14194
33251, 13352, 13351, 13362, 13363
33252, 13351, 13350, 13361, 13362
33253, 13350, 13349, 13360, 13361
33254, 13349, 13348, 13359, 13360
33255, 13348, 13347, 13358, 13359
33256, 13347, 13346, 13357, 13358
33257, 13346, 13345, 13356, 13357
33258, 13345, 13344, 13355, 13356
33259, 13344, 13343, 13354, 13355
33260, 13343, 13342, 13353, 13354
33261, 13330, 13329, 13340, 13341
33262, 13341, 13340, 13351, 13352
33263, 13329, 13328, 13339, 13340
33264, 13340, 13339, 13350, 13351
33265, 13328, 13327, 13338, 13339
33266, 13327, 13326, 13337, 13338
33267, 13339, 13338, 13349, 13350
33268, 13338, 13337, 13348, 13349
33269, 13326, 13325, 13336, 13337
33270, 13325, 13324, 13335, 13336
33271, 13337, 13336, 13347, 13348
33272, 13336, 13335, 13346, 13347
33273, 13324, 13323, 13334, 13335
33274, 13335, 13334, 13345, 13346
33275, 13323, 13322, 13333, 13334
33276, 13322, 13321, 13332, 13333
33277, 13334, 13333, 13344, 13345
33278, 13333, 13332, 13343, 13344
33279, 13321, 13320, 13331, 13332
33280, 13332, 13331, 13342, 13343
33281, 14208, 14209, 14206, 14205
33282, 14209, 14210, 14207, 14206
33283, 14205, 14206, 14203, 14202
33284, 14206, 14207, 14204, 14203
33285, 13319, 13318, 13329, 13330
33286, 13318, 13317, 13328, 13329
33287, 13317, 13316, 13327, 13328
33288, 13316, 13315, 13326, 13327
33289, 13315, 13314, 13325, 13326
33290, 13314, 13313, 13324, 13325
33291, 13313, 13312, 13323, 13324
33292, 13312, 13311, 13322, 13323
33293, 13311, 13310, 13321, 13322
33294, 13310, 13309, 13320, 13321
33295, 14212, 14213, 14209, 14208
33296, 14213, 14214, 14210, 14209
*Element, type=B31
35294, 14213, 13314
35295, 14209, 13325
35296, 14206, 13336
35297, 14203, 13347
35298, 14200, 13358
35299, 14197, 13369
35300, 14194, 13380
35301, 14191, 13391
35302, 14187, 13402
35303, 14181, 13413
35304, 14173, 13424
35305, 14163, 13435
35306, 14151, 13446
35307, 14137, 13457
35308, 14128, 13468
35309, 14118, 13479
35310, 14110, 13490
35311, 14107, 13501
35312, 14104, 13512
35313, 14101, 13523
35314, 14098, 13534
35315, 14095, 13545
35316, 14092, 13556
35317, 14088, 13567
35318, 14082, 13578
35319, 14074, 13589
35320, 14064, 13600
35321, 14052, 13611
35322, 14038, 13622
35323, 14029, 13633
35324, 14019, 13644
35325, 14011, 13655
35326, 14008, 13666
35327, 14005, 13677
35328, 14002, 13688
35329, 13999, 13699
35330, 13996, 13710
35331, 13993, 13721
35332, 13989, 13732
35333, 13983, 13743
35334, 13975, 13754
35335, 13965, 13765
35336, 13953, 13776
35337, 13939, 13787
35338, 13930, 13798
35339, 13920, 13809
35340, 13912, 13820
35341, 13909, 13831
35342, 13906, 13842
35343, 13903, 13853
35344, 13900, 13864
35345, 13897, 13875
35346, 13894, 13886
*Elset, elset=allBeams, generate
 35294,  35346,      1
*Elset, elset=allShells, generate
 32529,  33296,      1
*Nset, nset=retainedDOFs
   124,   125,   126,   127,   128,   129,   130,   131,   139,   140,   141,   142,   143,   144,   145,   146
   147,   155,   156,   157,   158,   159,   160,   161,   162,   163, 13333, 13366, 13498, 13531, 13663, 13696
 13828, 13861, 13916, 13925, 13934, 13948, 13960, 13967, 13968, 13969, 13970, 14015, 14024, 14033, 14047, 14059
 14066, 14067, 14068, 14069, 14114, 14123, 14132, 14146, 14158, 14165, 14166, 14167, 14168
*Nset, nset=bcDof
 13309, 13310, 13311, 13312, 13313, 13314, 13315, 13316, 13317, 13318, 13319, 13881, 13882, 13883, 13884, 13885
 13886, 13887, 13888, 13889, 13890, 13891, 13893, 13894, 13895, 14212, 14213, 14214
** Section: Section-2-PART-1-1_PART-1-1_PSHELL_2
*Shell Section, elset=allShells, material=MAT_MID_1
0.05, 5
** Section: Section-3-PART-1-1_PART-1-1_ES_PID_BAR_19  Profile: Profile-1
*Beam Section, elset=allBeams, material=MAT_MID_1, temperature=GRADIENTS, section=CIRC
0.1
-7.4988e-33,-6.12323e-17,-1.
*System
*Nset, nset=_M6
 13914, 13923, 13932, 13941, 13942, 13943, 13944, 13945, 13946, 14013, 14022, 14031, 14040, 14041, 14042, 14043
 14044, 14045, 14112, 14121, 14130, 14139, 14140, 14141, 14142, 14143, 14144
** 
** MATERIALS
** 
**    ---------------------------------------------------
**    ---- *MATERIAL ------------------------------------
**    ---------------------------------------------------
** 
**    material data from MAT1 with MID = 1
** 
*Material, name=MAT_MID_1
*Density
 0.0002614,
*Elastic
 1.05e+07, 0.33
** ----------------------------------------------------------------
** 
** STEP: substructure
** 
*Step, name=substructure
*Static
1,1,1E-5,1
*End Step
