*Heading
** Job name: frame Model name: frame
** Generated by: Abaqus/CAE 6.12-2
*Preprint, echo=NO, model=NO, history=NO, contact=NO
** ----------------------------------------------------------------
** 
** PART INSTANCE: frame-1
** 
*Node
      1,          10.,          7.5,           0.
      2,           1.,          7.5,           0.
      3,           1.,          16.,           0.
      4,          10.,          16.,           0.
      5,          10.,           1.,           0.
      6,           1.,           1.,           0.
      7,           1.,          6.5,           0.
      8,          10.,          6.5,           0.
      9,          11.,           0.,           0.
     10,           0.,           0.,           0.
     11,          11.,          17.,           0.
     12,           0.,          17.,           0.
     13,          9.5,          7.5,           0.
     14,           9.,          7.5,           0.
     15,          8.5,          7.5,           0.
     16,           8.,          7.5,           0.
     17,          7.5,          7.5,           0.
     18,           7.,          7.5,           0.
     19,          6.5,          7.5,           0.
     20,           6.,          7.5,           0.
     21,          5.5,          7.5,           0.
     22,           5.,          7.5,           0.
     23,          4.5,          7.5,           0.
     24,           4.,          7.5,           0.
     25,          3.5,          7.5,           0.
     26,           3.,          7.5,           0.
     27,          2.5,          7.5,           0.
     28,           2.,          7.5,           0.
     29,          1.5,          7.5,           0.
     30,           1.,           8.,           0.
     31,           1.,          8.5,           0.
     32,           1.,           9.,           0.
     33,           1.,          9.5,           0.
     34,           1.,          10.,           0.
     35,           1.,         10.5,           0.
     36,           1.,          11.,           0.
     37,           1.,         11.5,           0.
     38,           1.,          12.,           0.
     39,           1.,         12.5,           0.
     40,           1.,          13.,           0.
     41,           1.,         13.5,           0.
     42,           1.,          14.,           0.
     43,           1.,         14.5,           0.
     44,           1.,          15.,           0.
     45,           1.,         15.5,           0.
     46,          1.5,          16.,           0.
     47,           2.,          16.,           0.
     48,          2.5,          16.,           0.
     49,           3.,          16.,           0.
     50,          3.5,          16.,           0.
     51,           4.,          16.,           0.
     52,          4.5,          16.,           0.
     53,           5.,          16.,           0.
     54,          5.5,          16.,           0.
     55,           6.,          16.,           0.
     56,          6.5,          16.,           0.
     57,           7.,          16.,           0.
     58,          7.5,          16.,           0.
     59,           8.,          16.,           0.
     60,          8.5,          16.,           0.
     61,           9.,          16.,           0.
     62,          9.5,          16.,           0.
     63,          10.,         15.5,           0.
     64,          10.,          15.,           0.
     65,          10.,         14.5,           0.
     66,          10.,          14.,           0.
     67,          10.,         13.5,           0.
     68,          10.,          13.,           0.
     69,          10.,         12.5,           0.
     70,          10.,          12.,           0.
     71,          10.,         11.5,           0.
     72,          10.,          11.,           0.
     73,          10.,         10.5,           0.
     74,          10.,          10.,           0.
     75,          10.,          9.5,           0.
     76,          10.,           9.,           0.
     77,          10.,          8.5,           0.
     78,          10.,           8.,           0.
     79,          9.5,           1.,           0.
     80,           9.,           1.,           0.
     81,          8.5,           1.,           0.
     82,           8.,           1.,           0.
     83,          7.5,           1.,           0.
     84,           7.,           1.,           0.
     85,          6.5,           1.,           0.
     86,           6.,           1.,           0.
     87,          5.5,           1.,           0.
     88,           5.,           1.,           0.
     89,          4.5,           1.,           0.
     90,           4.,           1.,           0.
     91,          3.5,           1.,           0.
     92,           3.,           1.,           0.
     93,          2.5,           1.,           0.
     94,           2.,           1.,           0.
     95,          1.5,           1.,           0.
     96,           1.,          1.5,           0.
     97,           1.,           2.,           0.
     98,           1.,          2.5,           0.
     99,           1.,           3.,           0.
    100,           1.,          3.5,           0.
    101,           1.,           4.,           0.
    102,           1.,          4.5,           0.
    103,           1.,           5.,           0.
    104,           1.,          5.5,           0.
    105,           1.,           6.,           0.
    106,          1.5,          6.5,           0.
    107,           2.,          6.5,           0.
    108,          2.5,          6.5,           0.
    109,           3.,          6.5,           0.
    110,          3.5,          6.5,           0.
    111,           4.,          6.5,           0.
    112,          4.5,          6.5,           0.
    113,           5.,          6.5,           0.
    114,          5.5,          6.5,           0.
    115,           6.,          6.5,           0.
    116,          6.5,          6.5,           0.
    117,           7.,          6.5,           0.
    118,          7.5,          6.5,           0.
    119,           8.,          6.5,           0.
    120,          8.5,          6.5,           0.
    121,           9.,          6.5,           0.
    122,          9.5,          6.5,           0.
    123,          10.,           6.,           0.
    124,          10.,          5.5,           0.
    125,          10.,           5.,           0.
    126,          10.,          4.5,           0.
    127,          10.,           4.,           0.
    128,          10.,          3.5,           0.
    129,          10.,           3.,           0.
    130,          10.,          2.5,           0.
    131,          10.,           2.,           0.
    132,          10.,          1.5,           0.
    133,         10.5,           0.,           0.
    134,          10.,           0.,           0.
    135,          9.5,           0.,           0.
    136,           9.,           0.,           0.
    137,          8.5,           0.,           0.
    138,           8.,           0.,           0.
    139,          7.5,           0.,           0.
    140,           7.,           0.,           0.
    141,          6.5,           0.,           0.
    142,           6.,           0.,           0.
    143,          5.5,           0.,           0.
    144,           5.,           0.,           0.
    145,          4.5,           0.,           0.
    146,           4.,           0.,           0.
    147,          3.5,           0.,           0.
    148,           3.,           0.,           0.
    149,          2.5,           0.,           0.
    150,           2.,           0.,           0.
    151,          1.5,           0.,           0.
    152,           1.,           0.,           0.
    153,          0.5,           0.,           0.
    154,          11.,         16.5,           0.
    155,          11.,          16.,           0.
    156,          11.,         15.5,           0.
    157,          11.,          15.,           0.
    158,          11.,         14.5,           0.
    159,          11.,          14.,           0.
    160,          11.,         13.5,           0.
    161,          11.,          13.,           0.
    162,          11.,         12.5,           0.
    163,          11.,          12.,           0.
    164,          11.,         11.5,           0.
    165,          11.,          11.,           0.
    166,          11.,         10.5,           0.
    167,          11.,          10.,           0.
    168,          11.,          9.5,           0.
    169,          11.,           9.,           0.
    170,          11.,          8.5,           0.
    171,          11.,           8.,           0.
    172,          11.,          7.5,           0.
    173,          11.,           7.,           0.
    174,          11.,          6.5,           0.
    175,          11.,           6.,           0.
    176,          11.,          5.5,           0.
    177,          11.,           5.,           0.
    178,          11.,          4.5,           0.
    179,          11.,           4.,           0.
    180,          11.,          3.5,           0.
    181,          11.,           3.,           0.
    182,          11.,          2.5,           0.
    183,          11.,           2.,           0.
    184,          11.,          1.5,           0.
    185,          11.,           1.,           0.
    186,          11.,          0.5,           0.
    187,          0.5,          17.,           0.
    188,           1.,          17.,           0.
    189,          1.5,          17.,           0.
    190,           2.,          17.,           0.
    191,          2.5,          17.,           0.
    192,           3.,          17.,           0.
    193,          3.5,          17.,           0.
    194,           4.,          17.,           0.
    195,          4.5,          17.,           0.
    196,           5.,          17.,           0.
    197,          5.5,          17.,           0.
    198,           6.,          17.,           0.
    199,          6.5,          17.,           0.
    200,           7.,          17.,           0.
    201,          7.5,          17.,           0.
    202,           8.,          17.,           0.
    203,          8.5,          17.,           0.
    204,           9.,          17.,           0.
    205,          9.5,          17.,           0.
    206,          10.,          17.,           0.
    207,         10.5,          17.,           0.
    208,           0.,          0.5,           0.
    209,           0.,           1.,           0.
    210,           0.,          1.5,           0.
    211,           0.,           2.,           0.
    212,           0.,          2.5,           0.
    213,           0.,           3.,           0.
    214,           0.,          3.5,           0.
    215,           0.,           4.,           0.
    216,           0.,          4.5,           0.
    217,           0.,           5.,           0.
    218,           0.,          5.5,           0.
    219,           0.,           6.,           0.
    220,           0.,          6.5,           0.
    221,           0.,           7.,           0.
    222,           0.,          7.5,           0.
    223,           0.,           8.,           0.
    224,           0.,          8.5,           0.
    225,           0.,           9.,           0.
    226,           0.,          9.5,           0.
    227,           0.,          10.,           0.
    228,           0.,         10.5,           0.
    229,           0.,          11.,           0.
    230,           0.,         11.5,           0.
    231,           0.,          12.,           0.
    232,           0.,         12.5,           0.
    233,           0.,          13.,           0.
    234,           0.,         13.5,           0.
    235,           0.,          14.,           0.
    236,           0.,         14.5,           0.
    237,           0.,          15.,           0.
    238,           0.,         15.5,           0.
    239,           0.,          16.,           0.
    240,           0.,         16.5,           0.
    241,   10.4929409,   5.99893856,           0.
    242,    10.498353,   8.49976254,           0.
    243,   1.50103235,   16.4936447,           0.
    244,  0.507669926,    8.0009861,           0.
    245,   1.00084782,   16.4974747,           0.
    246,   10.4997339,   15.9997282,           0.
    247,   9.99910164,  0.504958212,           0.
    248,    9.4990406,  0.506528914,           0.
    249,   9.00030708,   6.99276733,           0.
    250,   10.4966784,   6.49889708,           0.
    251,    9.4998827,   6.99628782,           0.
    252,  0.503953636,   7.50006962,           0.
    253,   8.00133801,   6.98956394,           0.
    254,    7.5006814,   6.99235916,           0.
    255,   6.50137711,   6.98924017,           0.
    256,   6.00068855,   6.99224997,           0.
    257,   5.00137854,   6.98923349,           0.
    258,   4.50069332,   6.99226046,           0.
    259,   3.50149179,   6.98936319,           0.
    260,   3.00088358,   6.99260426,           0.
    261,   2.50036812,   6.99575186,           0.
    262,   2.00021172,   6.99791765,           0.
    263,   1.50054038,   6.99933624,           0.
    264,   1.00108576,   7.00001526,           0.
    265,  0.507675827,   8.50100136,           0.
    266,  0.507767022,   9.00100136,           0.
    267,  0.507828355,    9.5010004,           0.
    268,   0.50785929,   10.0009995,           0.
    269,  0.507873118,   10.5009995,           0.
    270,  0.507878959,   11.0009995,           0.
    271,  0.507881463,   11.5009995,           0.
    272,  0.507882655,   12.0009995,           0.
    273,  0.507882833,   12.5009985,           0.
    274,  0.507874846,   13.0009947,           0.
    275,  0.507795215,   13.5009794,           0.
    276,  0.507225156,   14.0008926,           0.
    277,   0.50511694,   14.5003958,           0.
    278,  0.503538668,   15.0000248,           0.
    279,   0.50198257,   15.4999304,           0.
    280,   2.00098634,   16.4927254,           0.
    281,   2.50097513,   16.4923477,           0.
    282,   3.00097203,   16.4922009,           0.
    283,   3.50097108,   16.4921455,           0.
    284,   4.00097084,   16.4921246,           0.
    285,   4.50097084,   16.4921169,           0.
    286,   5.00097084,    16.492115,           0.
    287,   5.50097084,   16.4921131,           0.
    288,   6.00097036,   16.4921112,           0.
    289,   6.50096941,   16.4921036,           0.
    290,   7.00096416,   16.4920654,           0.
    291,   7.50094891,   16.4921188,           0.
    292,   8.00086021,   16.4927177,           0.
    293,   8.50015926,   16.4951897,           0.
    294,   8.99995422,   16.4972973,           0.
    295,   9.49996376,   16.4986534,           0.
    296,   10.4999981,   15.4995384,           0.
    297,   10.5000372,   14.9994478,           0.
    298,   10.4999676,   14.4994192,           0.
    299,   10.4999018,   13.9994097,           0.
    300,   10.4998684,   13.4994078,           0.
    301,   10.4998541,   12.9994078,           0.
    302,   10.4998493,   12.4994078,           0.
    303,   10.4998465,   11.9994078,           0.
    304,   10.4998426,   11.4994078,           0.
    305,   10.4998341,   10.9994078,           0.
    306,   10.4998064,   10.4994068,           0.
    307,   10.4997253,   9.99940395,           0.
    308,   10.4994822,   9.49938774,           0.
    309,   10.4993238,   8.99984074,           0.
    310,    10.498086,   7.99965286,           0.
    311,   8.99902821,  0.507313609,           0.
    312,   8.49902821,  0.507657886,           0.
    313,   7.99902868,  0.507798731,           0.
    314,   7.49902916,  0.507853806,           0.
    315,   6.99902916,  0.507874668,           0.
    316,   6.49902916,  0.507882416,           0.
    317,   5.99902916,  0.507885218,           0.
    318,   5.49902916,  0.507886052,           0.
    319,   4.99902916,  0.507885575,           0.
    320,   4.49902868,  0.507880807,           0.
    321,   3.99902558,   0.50785166,           0.
    322,   3.49902463,  0.507733762,           0.
    323,   2.99904346,  0.507341146,           0.
    324,   2.49953222,  0.504962206,           0.
    325,   1.99987471,  0.502646744,           0.
    326,   1.50019324,  0.500968277,           0.
    327,  0.507480025,   1.50082529,           0.
    328,  0.507733524,   2.00095177,           0.
    329,  0.507835329,   2.50098681,           0.
    330,  0.507866323,   3.00099611,           0.
    331,  0.507862926,   3.50099874,           0.
    332,  0.507811487,   4.00099993,           0.
    333,   0.50758338,   4.50100136,           0.
    334,  0.505926013,   5.00092697,           0.
    335,  0.504014254,   5.50045156,           0.
    336,   0.50312531,   6.00022745,           0.
    337,   4.00041151,   6.99425983,           0.
    338,    5.5003891,   6.99421692,           0.
    339,   7.00038767,   6.99425316,           0.
    340,    8.5003109,   6.99448013,           0.
    341,   10.4924555,    5.4990077,           0.
    342,   10.4922457,   4.99902391,           0.
    343,   10.4921551,   4.49902916,           0.
    344,   10.4920835,    3.9990356,           0.
    345,   10.4921255,   3.49905086,           0.
    346,   10.4927216,   2.99913907,           0.
    347,   10.4951973,   2.49983811,           0.
    348,   10.4973373,   2.00005507,           0.
    349,   10.4987698,   1.50008607,           0.
    350,   10.4994326,  0.501623571,           0.
    351,   1.00046611,  0.499924123,           0.
    352,   10.4998884,   16.4994469,           0.
    353,   10.4977055,   7.49891424,           0.
    354,   10.4980688,   6.99813509,           0.
    355,   10.4997492,   1.00026345,           0.
    356,  0.501037776,    16.499136,           0.
    357,   9.99998951,    16.499424,           0.
    358,  0.503095984,   1.00016272,           0.
    359,   0.50253731,   6.50016546,           0.
    360,  0.502231538,   7.00004864,           0.
    361,  0.500785589,   15.9998789,           0.
    362,   9.99961758,   6.99832296,           0.
    363,  0.501054108,  0.500006378,           0.
*Element, type=S4R
  1, 175, 174, 250, 241
  2, 170, 169, 309, 242
  3, 189, 188, 245, 243
  4, 223, 222, 252, 244
  5,  46, 243, 245,   3
  6, 155, 154, 352, 246
  7, 134, 133, 350, 247
  8,  79, 248, 247,   5
  9, 363, 358, 209, 208
 10, 249, 121, 122, 251
 11, 123, 241, 250,   8
 12, 249, 251,  13,  14
 13,  30, 244, 252,   2
 14,   2, 252, 360, 264
 15, 340, 120, 121, 249
 16, 254, 253,  16,  17
 17, 339, 117, 118, 254
 18, 256, 255,  19,  20
 19, 338, 114, 115, 256
 20, 258, 257,  22,  23
 21, 337, 111, 112, 258
 22, 110, 259, 260, 109
 23, 260, 259,  25,  26
 24, 109, 260, 261, 108
 25, 261, 260,  26,  27
 26, 108, 261, 262, 107
 27, 262, 261,  27,  28
 28, 107, 262, 263, 106
 29, 263, 262,  28,  29
 30, 106, 263, 264,   7
 31, 264, 263,  29,   2
 32,  31, 265, 244,  30
 33,  32, 266, 265,  31
 34,  33, 267, 266,  32
 35,  34, 268, 267,  33
 36,  35, 269, 268,  34
 37,  36, 270, 269,  35
 38,  37, 271, 270,  36
 39,  38, 272, 271,  37
 40,  39, 273, 272,  38
 41,  40, 274, 273,  39
 42,  41, 275, 274,  40
 43,  42, 276, 275,  41
 44,  43, 277, 276,  42
 45,  44, 278, 277,  43
 46,  45, 279, 278,  44
 47, 240, 239, 361, 356
 48,  47, 280, 243,  46
 49,  48, 281, 280,  47
 50,  49, 282, 281,  48
 51,  50, 283, 282,  49
 52,  51, 284, 283,  50
 53,  52, 285, 284,  51
 54,  53, 286, 285,  52
 55,  54, 287, 286,  53
 56,  55, 288, 287,  54
 57,  56, 289, 288,  55
 58,  57, 290, 289,  56
 59,  58, 291, 290,  57
 60,  59, 292, 291,  58
 61,  60, 293, 292,  59
 62,  61, 294, 293,  60
 63,  62, 295, 294,  61
 64, 207, 206, 357, 352
 65,  63, 296, 246,   4
 66,  64, 297, 296,  63
 67,  65, 298, 297,  64
 68,  66, 299, 298,  65
 69,  67, 300, 299,  66
 70,  68, 301, 300,  67
 71,  69, 302, 301,  68
 72,  70, 303, 302,  69
 73,  71, 304, 303,  70
 74,  72, 305, 304,  71
 75,  73, 306, 305,  72
 76,  74, 307, 306,  73
 77,  75, 308, 307,  74
 78,  77, 242, 309,  76
 79,  78, 310, 242,  77
 80,   8, 250, 354, 362
 81,  80, 311, 248,  79
 82,  81, 312, 311,  80
 83,  82, 313, 312,  81
 84,  83, 314, 313,  82
 85,  84, 315, 314,  83
 86,  85, 316, 315,  84
 87,  86, 317, 316,  85
 88,  87, 318, 317,  86
 89,  88, 319, 318,  87
 90,  89, 320, 319,  88
 91,  90, 321, 320,  89
 92,  91, 322, 321,  90
 93,  92, 323, 322,  91
 94,  93, 324, 323,  92
 95,  94, 325, 324,  93
 96,  95, 326, 325,  94
 97, 358, 363, 351,   6
 98,  97, 328, 327,  96
 99,  98, 329, 328,  97
100,  99, 330, 329,  98
101, 100, 331, 330,  99
102, 101, 332, 331, 100
103, 102, 333, 332, 101
104, 103, 334, 333, 102
105, 104, 335, 334, 103
106, 105, 336, 335, 104
107, 111, 337, 259, 110
108, 113, 257, 258, 112
109, 114, 338, 257, 113
110, 116, 255, 256, 115
111, 117, 339, 255, 116
112, 119, 253, 254, 118
113, 120, 340, 253, 119
114, 251, 122,   8, 362
115, 124, 341, 241, 123
116, 125, 342, 341, 124
117, 126, 343, 342, 125
118, 127, 344, 343, 126
119, 128, 345, 344, 127
120, 129, 346, 345, 128
121, 130, 347, 346, 129
122, 131, 348, 347, 130
123, 132, 349, 348, 131
124, 186, 185, 355, 350
125, 133,   9, 186, 350
126, 135, 134, 247, 248
127, 248, 311, 136, 135
128, 311, 312, 137, 136
129, 312, 313, 138, 137
130, 313, 314, 139, 138
131, 314, 315, 140, 139
132, 315, 316, 141, 140
133, 316, 317, 142, 141
134, 317, 318, 143, 142
135, 318, 319, 144, 143
136, 319, 320, 145, 144
137, 320, 321, 146, 145
138, 321, 322, 147, 146
139, 322, 323, 148, 147
140, 323, 324, 149, 148
141, 324, 325, 150, 149
142, 325, 326, 151, 150
143, 326, 351, 152, 151
144, 154,  11, 207, 352
145, 156, 155, 246, 296
146, 296, 297, 157, 156
147, 297, 298, 158, 157
148, 298, 299, 159, 158
149, 299, 300, 160, 159
150, 300, 301, 161, 160
151, 301, 302, 162, 161
152, 302, 303, 163, 162
153, 303, 304, 164, 163
154, 304, 305, 165, 164
155, 305, 306, 166, 165
156, 306, 307, 167, 166
157, 307, 308, 168, 167
158, 308, 309, 169, 168
159, 171, 170, 242, 310
160, 310, 353, 172, 171
161, 362, 354, 353,   1
162, 176, 175, 241, 341
163, 341, 342, 177, 176
164, 342, 343, 178, 177
165, 343, 344, 179, 178
166, 344, 345, 180, 179
167, 345, 346, 181, 180
168, 346, 347, 182, 181
169, 347, 348, 183, 182
170, 348, 349, 184, 183
171, 187,  12, 240, 356
172, 356, 245, 188, 187
173, 190, 189, 243, 280
174, 280, 281, 191, 190
175, 281, 282, 192, 191
176, 282, 283, 193, 192
177, 283, 284, 194, 193
178, 284, 285, 195, 194
179, 285, 286, 196, 195
180, 286, 287, 197, 196
181, 287, 288, 198, 197
182, 288, 289, 199, 198
183, 289, 290, 200, 199
184, 290, 291, 201, 200
185, 291, 292, 202, 201
186, 292, 293, 203, 202
187, 293, 294, 204, 203
188, 294, 295, 205, 204
189,  10, 153, 363, 208
190, 358, 327, 210, 209
191, 327, 328, 211, 210
192, 328, 329, 212, 211
193, 329, 330, 213, 212
194, 330, 331, 214, 213
195, 331, 332, 215, 214
196, 332, 333, 216, 215
197, 333, 334, 217, 216
198, 334, 335, 218, 217
199, 335, 336, 219, 218
200, 336, 359, 220, 219
201, 264, 360, 359,   7
202, 224, 223, 244, 265
203, 265, 266, 225, 224
204, 266, 267, 226, 225
205, 267, 268, 227, 226
206, 268, 269, 228, 227
207, 269, 270, 229, 228
208, 270, 271, 230, 229
209, 271, 272, 231, 230
210, 272, 273, 232, 231
211, 273, 274, 233, 232
212, 274, 275, 234, 233
213, 275, 276, 235, 234
214, 276, 277, 236, 235
215, 277, 278, 237, 236
216, 278, 279, 238, 237
217, 310,  78,   1, 353
218,  96, 327, 358,   6
219,  14,  15, 340, 249
220, 353, 354, 173, 172
221,  13, 251, 362,   1
222, 359, 360, 221, 220
223,  15,  16, 253, 340
224,  17,  18, 339, 254
225,  18,  19, 255, 339
226,  20,  21, 338, 256
227,  21,  22, 257, 338
228,  23,  24, 337, 258
229,  24,  25, 259, 337
230, 279,  45,   3, 361
231, 356, 361,   3, 245
232, 238, 279, 361, 239
233, 295,  62,   4, 357
234, 352, 357,   4, 246
235, 205, 295, 357, 206
236, 308,  75,  76, 309
237, 326,  95,   6, 351
238, 336, 105,   7, 359
239, 349, 132,   5, 355
240, 350, 355,   5, 247
241, 184, 349, 355, 185
242, 153, 152, 351, 363
243, 354, 250, 174, 173
244, 360, 252, 222, 221
*Nset, nset=frame-1_allnodes, generate
   1,  363,    1
*Elset, elset=frame-1_allnodes, generate
   1,  244,    1
*Nset, nset=frame-1_bcset
   9,  10,  11,  12, 133, 134, 135, 136, 137, 138, 139, 140, 141, 142, 143, 144
 145, 146, 147, 148, 149, 150, 151, 152, 153, 154, 155, 156, 157, 158, 159, 160
 161, 162, 163, 164, 165, 166, 167, 168, 169, 170, 171, 172, 173, 174, 175, 176
 177, 178, 179, 180, 181, 182, 183, 184, 185, 186, 187, 188, 189, 190, 191, 192
 193, 194, 195, 196, 197, 198, 199, 200, 201, 202, 203, 204, 205, 206, 207, 208
 209, 210, 211, 212, 213, 214, 215, 216, 217, 218, 219, 220, 221, 222, 223, 224
 225, 226, 227, 228, 229, 230, 231, 232, 233, 234, 235, 236, 237, 238, 239, 240
 249, 251, 253, 254, 255, 256, 257, 258, 259, 260, 261, 262, 263, 264, 337, 338
 339, 340, 354, 360, 362
*Nset, nset=frame-1_retainedDofs
   1,   2,   3,   4,   5,   6,   7,   8,  13,  14,  15,  16,  17,  18,  19,  20
  21,  22,  23,  24,  25,  26,  27,  28,  29,  30,  31,  32,  33,  34,  35,  36
  37,  38,  39,  40,  41,  42,  43,  44,  45,  46,  47,  48,  49,  50,  51,  52
  53,  54,  55,  56,  57,  58,  59,  60,  61,  62,  63,  64,  65,  66,  67,  68
  69,  70,  71,  72,  73,  74,  75,  76,  77,  78,  79,  80,  81,  82,  83,  84
  85,  86,  87,  88,  89,  90,  91,  92,  93,  94,  95,  96,  97,  98,  99, 100
 101, 102, 103, 104, 105, 106, 107, 108, 109, 110, 111, 112, 113, 114, 115, 116
 117, 118, 119, 120, 121, 122, 123, 124, 125, 126, 127, 128, 129, 130, 131, 132
 243, 245, 247, 248, 249, 251, 253, 254, 255, 256, 257, 258, 259, 260, 261, 262
 263, 264, 280, 281, 282, 283, 284, 285, 286, 287, 288, 289, 290, 291, 292, 293
 294, 295, 311, 312, 313, 314, 315, 316, 317, 318, 319, 320, 321, 322, 323, 324
 325, 326, 337, 338, 339, 340, 351, 357, 362
** Section: stiffener
*Shell General Section, elset=frame-1_allnodes, material=steel
0.155, 
*System
** 
** MATERIALS
** 
*Material, name=steel
*Density
 0.000736,
*Elastic
 2.97e+07, 0.28
** ----------------------------------------------------------------
** 
** STEP: modal
** 
*Step, name=modal, perturbation
*Frequency, eigensolver=Lanczos, acoustic coupling=on, normalization=displacement
26, , , , , 
** 
** OUTPUT REQUESTS
** 
*Restart, write, frequency=0
** 
** FIELD OUTPUT: F-Output-1
** 
*Output, field, variable=PRESELECT
*End Step
